name,chr,pos,strand,footprint_class,nucleosome_shift_class,mcm_loading_class,activation_time,derived_origin_efficiency_from_mcguffee_et_al_2013,acs_sequence,log2_acs_motif_score,ars_name,ars_start,ars_end,oridb_status,G1_peak,G1_enrich,upstream_peak,downstream_peak,upstream_enrich,downstream_enrich
oridb_3,chrI,8221,-,g1_and_g2_footprint,downstream,downstream,late,-1,GCTTTTTACTATTTGGGCCAGTATATCGGTATT,10.3753,ARS103,7997,8547,Confirmed,8192,72.5961,NA,NA,NA,NA
oridb_7,chrI,42043,+,g1_and_g2_footprint,downstream,downstream,late,0.0319,AAAATTAACAATTAGGTTCATAGTCCCCTAATT,15.4399,ARS105,40715,43300,Confirmed,42268,15.1726,NA,42431,NA,4.1853
oridb_8,chrI,70432,-,g1_and_g2_footprint,upstream,upstream,late,0.5054,ATTTTTTATGTTTAGAAACAAAATTTCCCCGAG,10.218,ARS106,70256,70489,Confirmed,70701,30.0375,72143,69425,17.0515,13.953
oridb_10,chrI,124527,-,g1_and_g2_footprint,downstream,upstream,early,0.1319,ATTTTTTATATTTAAGTCTTGATTAACTGCTTT,19.1554,ARS107,124348,124597,Confirmed,124436,17.6148,124923,124040,57.7831,15.1822
oridb_11,chrI,137561,+,g1_and_g2_footprint,static,downstream,early,-0.0233,CTTTTTTATTTTTGGTATTTCATTTATCCTATA,10.1736,ARS107.5,136898,137898,Confirmed,NA,NA,NA,NA,NA,NA
oridb_15,chrI,176234,+,g1_and_g2_footprint,downstream,downstream,early,0.3999,TCTTTTTATGTTTTCTTATGATTGAATTATTTA,15.6285,ARS110,176156,176404,Confirmed,176321,43.9868,175432,176977,152.013,192.925
oridb_26,chrII,63377,-,g1_and_g2_footprint,downstream,downstream,early,0.6789,TTTTTTTAATTTTTGTCACGAAATCCTGGTATT,18.1913,ARS202,63192,63427,Confirmed,63216,50.4331,63552,62449,147.208,194.789
oridb_29,chrII,93539,+,g1_and_g2_footprint,downstream,upstream,late,0.0556,AGATATTATATTTATGTAAGAATTAAATTAATA,12.1616,ARS203,93412,93812,Confirmed,93353,18.6834,NA,93614,NA,3.50668
oridb_33,chrII,143746,-,g1_and_g2_footprint,upstream,upstream,late,0.1533,AAAATTTACGATTTTTCCTCCAATCTTGGCTTT,12.5602,ARS206,142906,144054,Confirmed,143753,33.9734,NA,NA,NA,NA
oridb_34,chrII,170261,-,g1_and_g2_footprint,static,downstream,late,0.1627,CAGTTTTATATTTAGTGAACATATGGGCAATTC,14.8581,ARS207,170087,170336,Confirmed,169832,37.2172,NA,170097,NA,7.33765
oridb_37,chrII,198423,-,g1_and_g2_footprint,static,upstream,early,0.7346,TAATTTAATGATTAGGCAAGCTTATTGTTAAAC,14.6093,ARS207.5,198231,198472,Confirmed,198621,20.1132,198902,197501,46.6496,55.0963
oridb_40,chrII,237874,-,g1_and_g2_footprint,static,upstream,early,0.4776,ACTTTTTACTTTTAGTTAAACTATTAAAGAATA,16.603,ARS208,237683,237918,Confirmed,237974,15.726,238559,237289,157.117,141.44
oridb_42,chrII,255090,-,g1_and_g2_footprint,downstream,upstream,early,0.5841,TTTATTTATTTTTATGTTTTGTATTTGGATTTT,19.1159,ARS209,254933,255179,Confirmed,255051,55.8367,255592,254764,53.4802,142.397
oridb_48,chrII,296115,+,g1_and_g2_footprint,static,upstream,late,-0.334,TTTGTTTATAATTTTTTTTTTTTTTTTTTTTTT,11.0685,NA,296041,306041,Dubious,NA,NA,NA,NA,NA,NA
oridb_50,chrII,326193,+,g1_and_g2_footprint,upstream,upstream,early,0.6585,ATTTTTTACATTTTTTTAAGCCATAACGGATTT,17.6706,ARS211,326139,326375,Confirmed,326346,26.3017,325773,326862,67.826,40.0329
oridb_68,chrII,622809,-,g1_and_g2_footprint,upstream,upstream,early,0.5095,TGAATTTAAGCTTAGGTACCCAACTTTACATTT,13.0309,ARS220,622670,622939,Confirmed,622823,15.7923,623065,621883,103.756,84.2859
oridb_70,chrII,632050,+,g1_and_g2_footprint,downstream,downstream,early,0.3784,TTTATTTATATTTATTTTTCGTTTCCTATTTTT,18.7855,ARS221,631979,632291,Confirmed,632129,13.7489,631109,632801,23.1356,39.2581
oridb_73,chrII,704343,+,g1_and_g2_footprint,static,upstream,late,0.5435,TATATATATATTTAGGTAAATCATTTACACTTT,18.3593,ARS222,704295,704566,Confirmed,704261,156.187,703992,704946,7.70418,11.204
oridb_77,chrII,741787,-,g1_and_g2_footprint,upstream,upstream,late,0.2938,ATTTTTAACGTTTTGTTTGTCCCACTTGGTATT,16.4153,ARS224,741557,741847,Confirmed,741757,56.2622,NA,NA,NA,NA
oridb_93,chrIII,39592,-,g1_and_g2_footprint,downstream,downstream,early,0.7025,TTTTTATATGTTTTGTTATGTATTGTTTATTTT,21.0076,ARS305,39158,39706,Confirmed,39495,21.6609,40017,39144,232.563,172.293
oridb_94,chrIII,54938,-,g1_and_g2_footprint,downstream,upstream,late,-0.5451,CTTTTTTTTTTTTTGTTACATAAAACTTTGCTT,9.1369,NA,53807,55007,Dubious,NA,NA,NA,NA,NA,NA
oridb_95,chrIII,74518,+,g1_and_g2_footprint,downstream,upstream,early,0.4748,TGTATTTATATTTATTTAGTACTTCTTGAGTTT,17.0869,ARS306,74457,74677,Confirmed,74480,27.3101,73633,75078,165.188,197.035
oridb_99,chrIII,132043,+,g1_and_g2_footprint,static,downstream,early,0.5361,ATTGTTTATATCTTGTTTTGAAGTTTTAGCTTT,14.0525,ARS309,131984,132328,Confirmed,132371,113.875,131358,132800,102.662,150.305
oridb_103,chrIII,166713,-,g1_and_g2_footprint,upstream,upstream,early,0.5782,TTTTTTTACTTTTTGCTCTAAGAGTTACGATTA,16.0258,ARS310,166502,167348,Confirmed,166701,29.2841,167562,166203,47.7369,94.7652
oridb_108,chrIII,205749,-,g1_and_g2_footprint,static,downstream,late,-0.1539,ATTTTTTTTATTTATTTAATCCAAGAGTTATTC,11.5319,ARS314.5,203884,207542,Confirmed,NA,NA,NA,NA,NA,NA
oridb_110,chrIII,224861,+,g1_and_g2_footprint,static,downstream,early,0.7846,TTTTTTTATGTTTTTCTTCGCGCGTCAACTTTC,12.0237,ARS315,224815,225061,Confirmed,224628,35.4784,224079,225672,132.921,173.878
oridb_112,chrIII,273031,-,g1_and_g2_footprint,upstream,downstream,late,0.3055,TTTTTTCAAATTTAGTTCTTCGTTGCCTACATT,14.9434,ARS316,272851,273095,Confirmed,272978,5.6176,NA,NA,NA,NA
oridb_114,chrIII,294821,+,g1_and_g2_footprint,downstream,downstream,late,0.0649,ATTTATCATGTTTTGGTATGATAATTTAATTTT,18.4244,ARS318,294403,295034,Confirmed,294756,6.11676,295433,NA,3.50668,NA
oridb_115,chrIII,310940,-,g1_and_g2_footprint,static,downstream,late,-1,CAATTTCATGTTCATTTGTTTATCTACCGCTTA,10.3952,NA,304370,311370,Likely,NA,NA,NA,NA,NA,NA
oridb_121,chrIV,46229,-,g1_and_g2_footprint,static,upstream,late,0.6938,AAATTTAATATTTTGGATGAAAAAAACCATTTT,11.5099,ARS404,46180,46236,Confirmed,46326,104.622,46873,45757,6.92759,24.6242
oridb_125,chrIV,101257,-,g1_and_g2_footprint,static,downstream,late,-0.2018,AGTATAAATGTTTAGTTTTATCCTACATACATA,13.6694,ARS405.5,100379,101354,Confirmed,NA,NA,NA,NA,NA,NA
oridb_126,chrIV,123794,-,g1_and_g2_footprint,downstream,upstream,late,0.8108,TTAATATATATTTAGTTACTTTTTCCCTCTAAT,15.4106,ARS406,123616,123901,Confirmed,123924,10.0153,124150,123188,56.1541,51.3959
oridb_127,chrIV,137678,-,g1_and_g2_footprint,static,upstream,late,-0.0231,TATTTTTATAATTACTTACAGATTGTTGTTCTT,14.4636,ARS407,137444,137807,Confirmed,137775,13.8195,NA,NA,NA,NA
oridb_130,chrIV,212593,-,g1_and_g2_footprint,static,upstream,late,0.5622,TTTTTTTATATTTTGTTGTTGGTTTCAGGAAAA,17.3217,ARS409,212419,212668,Confirmed,212819,22.4879,213478,211755,26.0899,12.5745
oridb_133,chrIV,236067,-,g1_and_g2_footprint,static,downstream,late,0.2972,CCTTTTTATATTTATTTTCAAATTTGTCAAAAA,11.9923,ARS409.5,235936,236185,Confirmed,236224,8.85456,NA,NA,NA,NA
oridb_136,chrIV,316863,+,g1_and_g2_footprint,static,upstream,late,0.1317,TAATTTTAAATTTTGTTCTTTTCCTAAACAATT,16.6526,ARS412,316720,317112,Confirmed,316737,31.815,316307,NA,13.4812,NA
oridb_137,chrIV,329672,+,g1_and_g2_footprint,static,downstream,early,0.7341,GGTGTTTATATTTAGGTAGGGCATAAGGATTTA,18.1477,ARS413,329565,329814,Confirmed,329993,20.2748,329188,330277,104.304,85.676
oridb_139,chrIV,358549,-,g1_and_g2_footprint,static,downstream,late,-0.0451,GATTTTAAAATTTTGCTTAAGATGATTTACATT,13.3636,NA,357807,359007,Dubious,NA,NA,NA,NA,NA,NA
oridb_141,chrIV,408134,+,g1_and_g2_footprint,downstream,downstream,early,0.4155,TTATATTATATTTAGCGATGTAATGAAAGTAAA,11.7412,ARS414,408074,408316,Confirmed,408342,16.9362,407716,408692,108.495,114.43
oridb_144,chrIV,462609,-,g1_and_g2_footprint,static,downstream,early,0.536,AGATTTTATGTTTAGATCTTTTATGCTTGCTTT,19.3481,ARS416,462434,462704,Confirmed,462547,41.33,463115,462128,190.842,141.421
oridb_149,chrIV,567585,+,g1_and_g2_footprint,downstream,upstream,early,0.021,TTTTTTCACGTTTTGCCTTTTATATACCGATTA,15.8889,ARS419,567495,567742,Confirmed,567487,89.1172,566530,567900,19.4458,22.4346
oridb_151,chrIV,629332,-,g1_and_g2_footprint,upstream,downstream,late,0.1641,GAAATTAATGTTTAGCGATCTAATAGTGATCTT,14.8495,ARS420,629079,629676,Confirmed,629304,46.7858,630477,NA,5.74443,NA
oridb_152,chrIV,640069,-,g1_and_g2_footprint,upstream,upstream,late,0.3842,TTTTTTAAAGTTTTGGTCGTTGAAAAAGGATTC,13.9313,ARS421,639866,640115,Confirmed,640241,42.281,640452,NA,5.56029,NA
oridb_159,chrIV,753340,-,g1_and_g2_footprint,downstream,downstream,late,0.4364,TTTTTTTACATTTTGCTTCAAAATAATGACTTT,18.9128,ARS423,753166,753398,Confirmed,753275,21.1836,NA,753844,NA,3.48551
oridb_171,chrIV,913865,+,g1_and_g2_footprint,downstream,downstream,early,0.6357,TATTTTTATATTTTGTTTCTTGCGTGGAGTTTT,19.1262,ARS428,913789,914038,Confirmed,913916,8.47748,913437,914375,180.48,53.5423
oridb_172,chrIV,921745,+,g1_and_g2_footprint,downstream,downstream,early,0.2915,GATTTTAATGATTAGTTGGGCTTTTGGCTACAT,14.7725,ARS429,921691,921939,Confirmed,921944,6.76847,921150,922148,12.6829,18.9325
oridb_178,chrIV,1021688,-,g1_and_g2_footprint,static,downstream,early,0.4082,TTTATTTCAGTTTTTTCGTTAATATTAGATCTC,9.2738,NA,1021554,1022264,Likely,NA,NA,NA,NA,NA,NA
oridb_180,chrIV,1057896,+,g1_and_g2_footprint,upstream,upstream,late,0.5269,ATTTTTTATGTTTATTCCATATATACACTTATA,20.5117,ARS431,1057837,1058085,Confirmed,1057962,14.2297,1057318,1058311,19.4458,13.2407
oridb_185,chrIV,1166182,-,g1_and_g2_footprint,static,upstream,early,0.6275,TTTATTTACATTTTGTCGGAATATTATTTCTTC,17.628,ARS432.5,1166009,1166232,Confirmed,1165973,29.0569,1166558,1165784,153.35,137.915
oridb_187,chrIV,1240931,+,g1_and_g2_footprint,downstream,upstream,late,0.4865,TTGATTTATATTTAGTCCAAATATTACAGAAAA,15.7328,ARS433,1240881,1241110,Confirmed,1241273,11.0578,1240621,NA,11.8697,NA
oridb_189,chrIV,1276289,+,g1_and_g2_footprint,upstream,upstream,late,0.362,TTTTTTTATGTTTCCCCCCCAAAGTTCTGATTT,13.2113,ARS434,1276224,1276452,Confirmed,1276225,8.83456,NA,NA,NA,NA
oridb_190,chrIV,1302768,-,g1_and_g2_footprint,downstream,upstream,late,0.6599,CAAATATATATTTAGTTAATGAAAATGGAATTA,14.6851,ARS435,1302591,1302831,Confirmed,1302828,17.4871,1303274,NA,13.3928,NA
oridb_191,chrIV,1305715,+,g1_and_g2_footprint,static,upstream,late,0.4403,ATTTTTAATGTTTTTATTTGGTAGCAACAAAAT,11.8358,NA,1305258,1306813,Dubious,NA,NA,NA,NA,NA,NA
oridb_193,chrIV,1353585,+,g1_and_g2_footprint,upstream,upstream,late,0.7143,CAAATTAATATTTATGAACGTTATGATGTCAAG,8.0574,ARS437,1353506,1353679,Confirmed,1353524,92.34,1352298,NA,20.6057,NA
oridb_197,chrIV,1404334,+,g1_and_g2_footprint,static,downstream,late,0.5769,TCTTTTTATATTTTGGAATGTTTTTGTGCTAAA,12.3319,ARS440,1404289,1404524,Confirmed,1404098,26.843,NA,NA,NA,NA
oridb_201,chrIV,1462059,+,g1_and_g2_footprint,static,upstream,late,0.6529,ATAATTTATGTTTAGCTCTTACTTTAATCCCAA,16.283,ARS442,1461861,1462173,Confirmed,1462079,29.4782,1461594,NA,17.6135,NA
oridb_205,chrIV,1496012,-,g1_and_g2_footprint,static,downstream,late,-0.063,TTTATTTATCTATAGTCTGAACTTAAAATTTTA,12.0115,NA,1495303,1502303,Likely,NA,NA,NA,NA,NA,NA
oridb_206,chrIV,1502801,-,g1_and_g2_footprint,static,downstream,late,0.0721,TATAATTATGTTTTTGTGAGAAATTTTAGCTTT,18.8302,ARS447,1502636,1503234,Confirmed,1502865,14.2297,NA,1502474,NA,2.70769
oridb_216,chrV,59470,-,g1_and_g2_footprint,upstream,upstream,early,0.6105,AATATTTACATTTTGATACTGTCCATCAGATTT,14.2527,ARS507,59282,59516,Confirmed,59451,5.92832,59852,59087,137.513,125.933
oridb_218,chrV,94055,+,g1_and_g2_footprint,upstream,downstream,early,0.7207,CAAGTTTATATTTTGTTGCTAGCGTTACGGTTA,15.2893,ARS508,93977,94218,Confirmed,94097,105.167,93731,94886,132.153,161.318
oridb_222,chrV,173809,-,g1_and_g2_footprint,upstream,upstream,early,0.5677,TAATTTTATATTTTGCCTTGAAATTTAATCATG,17.1013,ARS511,173637,173875,Confirmed,173783,1.53817,174626,173150,109.293,154.054
oridb_227,chrV,276364,+,g1_and_g2_footprint,static,upstream,late,0.0509,ATTATTTCTGTTTAGTTGATAAATTTTGATTTC,17.615,ARS513.5,276129,276528,Confirmed,276013,16.6256,NA,278034,NA,58.7648
oridb_229,chrV,287567,+,g1_and_g2_footprint,downstream,downstream,early,0.4205,TTTATTTATGTTTTGTTCCCAGCGGGCATCTTT,19.8211,ARS514,287506,287752,Confirmed,287703,50.4331,287131,288624,40.8661,26.6623
oridb_232,chrV,353586,+,g1_and_g2_footprint,static,upstream,early,0.6488,AATATTTACTTTTTGGTGCGGAAATCTGTAATA,17.7631,ARS516,353508,353755,Confirmed,353604,12.7872,353142,353862,135.155,80.784
oridb_233,chrV,406907,-,g1_and_g2_footprint,static,upstream,early,0.4863,TTTTTTTATATATAGTCCCGCTCTCAAGTGAAT,12.3605,ARS517,406751,406953,Confirmed,407213,7.44023,407429,405955,20.6057,23.5494
oridb_236,chrV,439106,-,g1_and_g2_footprint,downstream,downstream,early,0.6944,ATTTTTTAAGTTTTGCGCCTTTAGCTCATGTTT,16.3863,ARS518,438933,439182,Confirmed,439019,30.8813,439340,438559,65.1723,60.1157
oridb_241,chrV,520874,+,g1_and_g2_footprint,static,downstream,late,0.0472,AATAAATATGTTTAGTTATCATACACCATAGAA,9.7723,ARS521,520772,521030,Confirmed,521130,7.44023,NA,NA,NA,NA
oridb_242,chrV,549687,-,g1_and_g2_footprint,downstream,upstream,late,0.267,TAATTTAATATTTTTTTTCCGAATTACAACAAT,17.3496,ARS522,549565,549814,Confirmed,549391,68.3279,NA,NA,NA,NA
oridb_252,chrVI,32973,-,g1_and_g2_footprint,static,downstream,late,0.0888,AATTTATACGTTTAGTTTTAACATCATCACAAT,18.2835,ARS602,32666,33247,Confirmed,32682,23.696,NA,NA,NA,NA
oridb_255,chrVI,68858,-,g1_and_g2_footprint,downstream,downstream,late,0.3181,TAATTTCATATTTTGTATCAAAACTTTAAAATC,13.6997,ARS603,68692,68871,Confirmed,68407,3.18469,NA,NA,NA,NA
oridb_258,chrVI,118657,+,g1_and_g2_footprint,upstream,downstream,early,0.2342,TTAATTAATGTTTCTTCCCTGAAAATATGGAAA,7.2479,ARS603.5,118636,118957,Confirmed,118636,20.2748,118050,119481,87.6809,104.494
oridb_260,chrVI,136050,-,g1_and_g2_footprint,static,downstream,early,0.5287,ATTAATTACGTTTTGTTGCTAAAGGAAACTTTA,17.0379,ARS605,135984,136085,Confirmed,136005,39.109,136864,134976,168.939,76.2228
oridb_261,chrVI,167739,-,g1_and_g2_footprint,downstream,downstream,early,0.6354,TATATTTATATTTTCGTTTGCAATTTCGCAATT,17.4731,ARS606,167613,168048,Confirmed,167647,47.3701,168386,167223,218.857,113.511
oridb_262,chrVI,199413,+,g1_and_g2_footprint,downstream,downstream,early,0.6923,CTTGTTTATATTTAGTTACGTTGGGATCAAGTT,16.8655,ARS607,199394,199505,Confirmed,199442,60.8046,198468,199621,194.436,91.497
oridb_263,chrVI,216481,+,g1_and_g2_footprint,downstream,downstream,late,0.0917,TTTTTTTACTTTTAGTTTTCTTCTATGCGCAAG,13.2265,ARS608,216356,216704,Confirmed,216650,25.1631,216326,NA,21.7336,NA
oridb_271,chrVII,17922,-,g1_and_g2_footprint,downstream,downstream,late,0.3994,ATTATTATGGTTTAGTTATAGAAGTTCATCATT,13.706,ARS700.5,17629,18112,Confirmed,17501,8.08846,NA,NA,NA,NA
oridb_274,chrVII,64459,-,g1_and_g2_footprint,downstream,downstream,late,0.6232,ATTTTTAATATTTTGTTTCTCGTTTTGCCTTAT,16.7608,ARS702,64280,64529,Confirmed,64349,38.0453,NA,NA,NA,NA
oridb_276,chrVII,112124,+,g1_and_g2_footprint,static,upstream,late,0.4579,ATTTTATACGTTTATGTCTATTTCAATGCAATT,15.7423,ARS704,112078,112317,Confirmed,112039,8.83456,NA,NA,NA,NA
oridb_279,chrVII,163235,+,g1_and_g2_footprint,downstream,downstream,early,0.5516,TCATTTTATAATTTGTTGTTACAAACAGTATTT,16.5093,ARS707,163176,163443,Confirmed,163259,13.7489,161652,163774,9.20608,45.7351
oridb_282,chrVII,187385,+,g1_and_g2_footprint,static,upstream,late,0.0489,AGATTTTATATCTAGTCCGGAAAAAGAAGGAAA,6.0043,ARS709,187237,187647,Confirmed,187294,8.83456,187554,NA,5.88843,NA
oridb_289,chrVII,286003,+,g1_and_g2_footprint,downstream,downstream,early,0.7475,TTTATTTACTTTTAGTCCGTATACTTTTATTTT,19.4044,ARS714,285947,286242,Confirmed,286099,9.46425,285685,286784,94.6479,34.464
oridb_290,chrVII,288012,-,g1_and_g2_footprint,downstream,downstream,early,0.6296,ATTTTTTACATTTGTTCTATCAGTTAGTAAAAT,11.1244,NA,287948,289009,Likely,NA,NA,NA,NA,NA,NA
oridb_294,chrVII,388847,-,g1_and_g2_footprint,upstream,upstream,early,0.6433,TTTATTTAACTTTTGTTCCTAATTATGTATTAG,15.6031,ARS717,388657,388891,Confirmed,389006,70.5726,389590,388508,25.9842,112.967
oridb_295,chrVII,421280,-,g1_and_g2_footprint,static,upstream,early,0.7505,TAAATTATTGTTTAGTTTTGATTAGCTTTACTT,15.8914,ARS718,421089,421338,Confirmed,421512,22.7301,421900,420267,116.17,96.5358
oridb_298,chrVII,485111,-,g1_and_g2_footprint,downstream,upstream,early,0.726,TTTATTTATGTTTTGCCGTAAGATCGATACTTT,20.3179,ARS719,484929,485157,Confirmed,485108,25.765,485419,484707,70.7096,117.014
oridb_299,chrVII,508908,-,g1_and_g2_footprint,upstream,downstream,early,0.6719,CATTTTAATGTTTGGTTGTGAATTGAAAGAATA,16.921,ARS720,508728,508977,Confirmed,508612,19.4109,509863,508296,102.217,183.264
oridb_306,chrVII,591933,+,g1_and_g2_footprint,static,upstream,late,0.0477,AATATATATGTTTAGCGAAAAAAAAGGCCAAAA,7.3009,NA,591599,592799,Dubious,592155,3.32994,NA,NA,NA,NA
oridb_311,chrVII,660001,-,g1_and_g2_footprint,upstream,upstream,early,0.6823,ATATTTTATGTTTACTTATGTTAACCTGCATTA,20.2386,ARS727,659808,660053,Confirmed,660092,35.3652,660977,659544,39.906,31.5391
oridb_318,chrVII,834665,-,g1_and_g2_footprint,downstream,downstream,early,0.7377,TTGTATATAGTTTAGTTACCATTTCCGTACTTT,11.8909,ARS731,834490,834734,Confirmed,834560,70.048,835633,834113,146.33,80.1134
oridb_322,chrVII,888412,+,g1_and_g2_footprint,downstream,downstream,early,0.6211,TATTTTAATATTTTGTTCTTTAGTTTTAAAAAT,19.9444,ARS731.5,888348,888597,Confirmed,888435,23.3181,887641,888949,152.072,211.23
oridb_323,chrVII,916908,+,g1_and_g2_footprint,downstream,downstream,late,0.0137,TTTTTTTAGGTTTTTGCTTTATATTCTTTCTTT,13.1234,ARS732,916673,917168,Confirmed,917166,11.5481,916698,NA,6.66116,NA
oridb_326,chrVII,999502,+,g1_and_g2_footprint,downstream,downstream,late,0.6162,AAAGTTCATGTTTTGTTATTTCTTTCTCACATA,16.2937,ARS734,999446,999692,Confirmed,999630,4.6915,998943,1000184,17.6378,7.14898
oridb_327,chrVII,1002286,+,g1_and_g2_footprint,static,upstream,late,0.5822,ATTTATTTCATTTTCTTAGAATAGTTTAGTTTA,9.014,ARS735,1002179,1002568,Confirmed,1002116,9.31972,NA,1000490,NA,3.52985
oridb_330,chrVII,1063500,+,g1_and_g2_footprint,static,downstream,late,0.327,AATGTTCATATTTAGTCAAGTTCTTAATGAAAT,13.3161,ARS735.5,1063250,1063711,Confirmed,1063635,91.1575,NA,NA,NA,NA
oridb_336,chrVIII,7756,-,g1_and_g2_footprint,static,downstream,late,-1,TATTTTTATATTTAGGTGATTTTAGTGGTTATT,23.2374,ARS802,7535,7783,Confirmed,7819,31.8081,NA,NA,NA,NA
oridb_338,chrVIII,45796,-,g1_and_g2_footprint,static,downstream,late,0.1458,AAAGTTAATATTTAGTACCGATACTATACATTA,16.4462,ARS804,45591,46078,Confirmed,46080,16.3426,NA,NA,NA,NA
oridb_339,chrVIII,59063,+,g1_and_g2_footprint,static,downstream,late,0.3545,ATATTTTAATTTTTGGTAGATTTTTTTTTTTTT,12.2813,NA,56653,59175,Likely,NA,NA,NA,NA,NA,NA
oridb_340,chrVIII,64302,+,g1_and_g2_footprint,downstream,upstream,early,0.4105,TAATTTTAATTTTAGTTATTGATTTCAATGAAA,14.5253,ARS805,64258,64493,Confirmed,64079,22.9428,63874,65183,34.1436,48.2136
oridb_345,chrVIII,116421,-,g1_and_g2_footprint,static,downstream,early,0.4714,AAATAGTATGTTTTGGTGTTAAAGAAGAACATT,12.1741,NA,115690,117264,Likely,116140,38.3566,117095,116009,69.2227,140.311
oridb_346,chrVIII,133539,-,g1_and_g2_footprint,static,downstream,early,0.4435,TATTTTAACATTTAGTTTGTGATTTCCGGTAAA,18.9215,ARS807,133356,133600,Confirmed,133928,14.3724,134678,132811,79.0416,56.4313
oridb_349,chrVIII,168605,+,g1_and_g2_footprint,static,downstream,late,0.1215,TATTTAGACATTTAGTTTAGTATTCTAGGTGCT,6.7564,ARS809,168540,168782,Confirmed,168722,62.4805,168472,169021,12.0304,7.87498
oridb_355,chrVIII,245788,+,g1_and_g2_footprint,upstream,downstream,late,0.6366,CTATTTTATGATTAGTTGCAAAACTTGAAAAAA,16.7542,ARS813,245718,245967,Confirmed,245843,8.26879,245133,246998,8.60589,10.7282
oridb_360,chrVIII,344444,-,g1_and_g2_footprint,static,downstream,late,-0.2209,TGAAATTATATTTAGGAAACTGGGATCGATGTT,4.7448,NA,344373,345083,Likely,NA,NA,NA,NA,NA,NA
oridb_361,chrVIII,359712,-,g1_and_g2_footprint,downstream,upstream,late,0.4389,TATTTTTATAATTTGGCCTCCAAATGTAAAAAT,15.7965,ARS816,359467,359926,Confirmed,359794,80.0418,NA,NA,NA,NA
oridb_364,chrVIII,392248,-,g1_and_g2_footprint,downstream,downstream,late,0.3738,ACTTTTCATGTTTTGTTGTAGAGAGCCCATTTA,15.2168,ARS818,392147,392390,Confirmed,392183,15.8962,NA,NA,NA,NA
oridb_366,chrVIII,447795,-,g1_and_g2_footprint,downstream,downstream,early,0.7438,TATGTTTATGTTTTGTGAGTAAAGTCAAGAATT,21.4473,ARS820,447621,447855,Confirmed,447755,15.546,448137,447225,21.7841,88.7941
oridb_383,chrIX,51502,-,g1_and_g2_footprint,static,downstream,late,-0.0224,AGTGTTTATATTCTATTTCCAATACATAATATA,8.2501,NA,50806,52259,Dubious,NA,NA,NA,NA,NA,NA
oridb_384,chrIX,73969,-,g1_and_g2_footprint,upstream,downstream,late,0.1799,CAAATTTAAGTTTCTTTATATATTCCTTACTTT,11.8207,ARS907,73803,74220,Confirmed,73868,18.4509,74493,73393,32.5893,16.8122
oridb_387,chrIX,113656,+,g1_and_g2_footprint,upstream,downstream,late,0.0716,TGAAATTTGGTTTAGTTATTTAAGTGAATTGTA,4.3033,NA,112737,114306,Dubious,NA,NA,NA,NA,NA,NA
oridb_389,chrIX,163135,-,g1_and_g2_footprint,static,downstream,late,-0.0216,TTTGTTTATATTTTTCTATAACTGTTTTCCTTT,12.9425,ARS911.5,162939,163305,Confirmed,162925,3.47586,NA,NA,NA,NA
oridb_390,chrIX,175173,+,g1_and_g2_footprint,downstream,upstream,late,0.1795,ATGTTTTATGTTTTGTCTGGAAAAACATATAGT,14.4972,ARS912,175037,175358,Confirmed,175075,41.9607,174614,175531,21.8346,80.7529
oridb_399,chrIX,245883,-,g1_and_g2_footprint,upstream,downstream,early,0.1332,TTTTTTAATGTTTTGTCCTTATAACGCGACTTA,23.609,ARS913.5,245697,245935,Confirmed,245710,5.48599,246692,245428,103.858,13.8422
oridb_404,chrIX,310785,-,g1_and_g2_footprint,downstream,upstream,early,0.212,TTTCTTTTTGTTTCAGCGTCGTTATTTAAATTT,7.0798,ARS916,310585,311072,Confirmed,310358,9.35734,311241,310182,67.3745,77.687
oridb_408,chrIX,342032,-,g1_and_g2_footprint,downstream,downstream,early,0.3772,TTTTTTAATGTTTAGCTTTCAAAAAAGCTAAAA,16.7079,ARS919,341856,342099,Confirmed,341784,18.8232,342165,340750,111.533,64.2461
oridb_409,chrIX,357225,+,g1_and_g2_footprint,downstream,upstream,early,0.5149,AATTTTTATATTTTGTTGCTTCAAAAACAGTGC,12.1305,ARS920,357159,357396,Confirmed,357174,71.2093,356742,357945,181.868,108.521
oridb_412,chrIX,412004,-,g1_and_g2_footprint,downstream,upstream,early,0.6869,AATTTTAATGTTTTGTCGTGAAGAAGAAGAAGT,13.1063,ARS922,411820,412056,Confirmed,411945,42.9191,412124,411668,123.974,202.496
oridb_418,chrX,23920,+,g1_and_g2_footprint,static,upstream,late,0.1337,AAATTTTTAGTTTTGTTATAATAAACGACTTTT,16.3509,ARS1004,23661,24158,Confirmed,23894,29.2731,NA,NA,NA,NA
oridb_420,chrX,67664,+,g1_and_g2_footprint,downstream,upstream,late,0.4832,AAATTATATGTTTTTGTCCTGGGCGCGACATTC,10.8472,ARS1005,67468,67950,Confirmed,67679,10.3002,67371,68027,47.1652,36.0543
oridb_421,chrX,99626,-,g1_and_g2_footprint,downstream,downstream,early,0.726,TTTATTTATGTTTTGTTTAACTGACGGTGTTTT,18.3252,ARS1006,99366,99803,Confirmed,99408,52.3946,99798,99154,101.613,78.4905
oridb_428,chrX,217576,+,g1_and_g2_footprint,static,downstream,late,-0.1902,TATATTTATAATTTACTTTTGAAATTTTTCTTA,11.3259,NA,205058,220058,Dubious,NA,NA,NA,NA,NA,NA
oridb_429,chrX,228878,-,g1_and_g2_footprint,upstream,downstream,late,0.2972,AATATTTATATTTATGTACAGTTTTACATTGTA,15.9379,ARS1009,228551,229043,Confirmed,NA,NA,NA,NA,NA,NA
oridb_432,chrX,299013,+,g1_and_g2_footprint,downstream,downstream,late,0.6358,AACATTATTGTTTAGTAACAGTATCATCTTAAA,8.6521,ARS1010,298775,299256,Confirmed,299247,6.11676,NA,NA,NA,NA
oridb_435,chrX,337352,+,g1_and_g2_footprint,static,upstream,late,0.0788,TTTTTTTATGTTTAGCTAAGTAAAAGCAGCTTG,19.1375,ARS1011,337280,337529,Confirmed,337270,43.1802,NA,NA,NA,NA
oridb_437,chrX,374939,+,g1_and_g2_footprint,downstream,downstream,early,0.7061,TTATTTTATTTATAGTTTCTATCTTTCAGCTTT,15.5381,ARS1012,374879,375122,Confirmed,375058,182.053,374279,375659,172.593,113.076
oridb_438,chrX,375909,+,g1_and_g2_footprint,static,downstream,early,0.6023,ATAATAAATATTTATGTATTGGATAGTAGTATA,11.8918,ARS1013,375705,376227,Confirmed,NA,NA,NA,NA,NA,NA
oridb_440,chrX,417396,-,g1_and_g2_footprint,downstream,downstream,early,0.6677,ATTTTTTATATTTAGTTTACTTTCCAGTCAATT,19.2756,ARS1014,417194,417440,Confirmed,417324,27.6816,418013,415826,145.003,111.105
oridb_443,chrX,459757,-,g1_and_g2_footprint,upstream,downstream,early,0.1122,TATATTTATATATAGTACTATTATCTTCCCTTT,14.1501,ARS1017,459336,459895,Confirmed,459658,8.05401,460062,459069,63.012,8.69206
oridb_446,chrX,540608,+,g1_and_g2_footprint,upstream,upstream,early,0.6702,AATTTTTACATTTAGTAATATCTAATAACATAT,15.5343,ARS1018,540545,540780,Confirmed,540621,27.8192,540276,541898,168.284,117.186
oridb_451,chrX,654550,-,g1_and_g2_footprint,upstream,downstream,late,-0.1501,TTTATTTACATTTTGGTCATTTGAAAATACTTT,15.9837,ARS1020,654374,654614,Confirmed,654886,8.91068,655083,654007,22.1961,14.2082
oridb_464,chrXI,55867,-,g1_and_g2_footprint,upstream,upstream,early,0.8197,TTCATTAATGTTTAGTTCCGAGCGTGACGTTAC,14.9574,ARS1103,55670,55917,Confirmed,55828,64.3648,56081,55348,163.205,177.757
oridb_473,chrXI,200218,+,g1_and_g2_footprint,static,downstream,late,-0.0881,CAAATTAATGTTTTATAACTGGATTGTTGTTAA,8.3455,ARS1106.5,199892,200895,Confirmed,NA,NA,NA,NA,NA,NA
oridb_480,chrXI,329859,-,g1_and_g2_footprint,static,upstream,early,0.591,TTTTTTTATGTTTTTTTACGTTTTGAGATCATA,20.782,ARS1109,329681,329930,Confirmed,329953,10.8001,330460,329123,70.4174,97.4442
oridb_481,chrXI,334345,-,g1_and_g2_footprint,static,upstream,early,0.3964,ATTTTTAATGTATATGTAACCTCTCTCTCTTTT,9.5342,NA,333473,334916,Likely,NA,NA,NA,NA,NA,NA
oridb_483,chrXI,382532,+,g1_and_g2_footprint,static,downstream,late,0.1135,TTTATTATTGTATTATTGTATTATTATTATATT,10.5256,NA,381572,382985,Dubious,NA,NA,NA,NA,NA,NA
oridb_484,chrXI,389024,+,g1_and_g2_footprint,static,downstream,late,0.4655,CTTGTTTATGTTTATTTGTAAAATTACATTATT,21.6748,ARS1112,388969,389264,Confirmed,389147,15.4326,388622,389800,15.7895,11.3009
oridb_485,chrXI,417240,+,g1_and_g2_footprint,static,downstream,early,0.1805,GAAGTTTAATTTTAGGTGTCGGGAGAAACATTT,10.6845,ARS1113,417184,417417,Confirmed,417275,18.7375,416863,417930,19.0815,48.8581
oridb_487,chrXI,448199,-,g1_and_g2_footprint,downstream,downstream,early,0.5919,CCTTTTTATGTTTTGTTCTTGATTTTAATACTA,18.3731,ARS1114,448019,448254,Confirmed,448125,12.5556,448835,447081,96.5392,71.5282
oridb_492,chrXI,517043,+,g1_and_g2_footprint,static,downstream,early,0.5231,TTTTTTTACTTTTTGTTATTTTATTTATGTTTT,19.4277,ARS1116,517016,517265,Confirmed,517227,27.834,516182,518248,50.3299,90.734
oridb_496,chrXI,581896,+,g1_and_g2_footprint,static,upstream,late,0.4223,TTTTTTTACATTTAGTTTCATTATTATGCAAAT,20.9523,ARS1118,581832,582070,Confirmed,581800,76.2585,NA,582022,NA,32.1635
oridb_498,chrXI,612412,-,g1_and_g2_footprint,static,downstream,late,0.7361,TTTTTTTATGTTTTTGGCTCCTAGAGGTGAATA,14.0135,ARS1120,612240,612473,Confirmed,612295,20.6972,612979,612162,31.8701,58.2548
oridb_499,chrXI,617672,+,g1_and_g2_footprint,downstream,downstream,late,0.2183,TTTCTTTATGTATAATTACTATTGTATAATATT,12.9413,NA,617038,618499,Dubious,NA,NA,NA,NA,NA,NA
oridb_500,chrXI,634135,-,g1_and_g2_footprint,static,downstream,late,-0.0807,TCGATTTACGTTTTGTTCAAAAAAATGTATTTG,12.1019,NA,632373,634747,Likely,633802,11.8303,NA,NA,NA,NA
oridb_501,chrXI,642783,+,g1_and_g2_footprint,static,downstream,late,0.1538,TGATTTTATATTTAGTTGGCGAACTAGCTCATC,19.3917,ARS1123,642726,642973,Confirmed,642876,148.426,NA,NA,NA,NA
oridb_506,chrXII,31704,+,g1_and_g2_footprint,static,upstream,late,0.0502,AATATTGATGTTTTGTTGTGTAAATGTTCTATC,15.022,NA,28749,32505,Dubious,31781,13.9381,NA,NA,NA,NA
oridb_509,chrXII,76886,+,g1_and_g2_footprint,upstream,upstream,late,0.1584,ATTTCTTTTATTTTGTTTTTGTTTTTTGCCTTT,8.8346,ARS1205,76712,77164,Confirmed,76773,1.36345,76322,77438,5.22018,28.4777
oridb_510,chrXII,91467,+,g1_and_g2_footprint,upstream,upstream,early,0.5083,CATTTTAACGTTTAGTTCATCTTGCTGTGAATA,16.7891,ARS1206,91418,91660,Confirmed,91503,33.9017,91255,92842,36.5597,65.8254
oridb_511,chrXII,93282,+,g1_and_g2_footprint,static,downstream,early,0.2291,TTTTTTTACGTTTTTTGATGCAAACGCAATAAA,11.9692,ARS1206.5,93167,93660,Confirmed,93454,13.8195,92842,93990,65.8254,6.72854
oridb_512,chrXII,139704,+,g1_and_g2_footprint,downstream,downstream,early,0.3733,TTTATTTAACTTTATTTCTAATTTGTGGACTTT,17.5304,NA,139294,140448,Dubious,139781,59.5102,139315,140241,36.8793,32.5893
oridb_514,chrXII,156701,+,g1_and_g2_footprint,upstream,upstream,early,0.5718,TGATTTTACTTTTTGGAAGGGCTTTGGACAATT,10.2849,ARS1209,156647,156884,Confirmed,156705,55.9682,155978,157662,90.1984,68.714
oridb_516,chrXII,181694,-,g1_and_g2_footprint,static,downstream,late,-0.0918,TATATTTATATATATGCTAGTATATACGGATAT,12.7021,NA,179333,194331,Dubious,NA,NA,NA,NA,NA,NA
oridb_519,chrXII,231249,+,g1_and_g2_footprint,static,upstream,early,0.6456,TTTGTTTATATTTTTGTTCAAAAAATGAGTTAA,13.4392,ARS1211,231178,231421,Confirmed,231301,11.7095,231044,231752,183.927,176.317
oridb_520,chrXII,243726,+,g1_and_g2_footprint,static,downstream,late,0.0355,TAAATTAATGTTTAGTTCTGATATTTCATTTTT,23.1501,ARS1211.5,243526,243959,Confirmed,243712,10.5277,243164,244348,11.3197,4.93593
oridb_522,chrXII,289421,-,g1_and_g2_footprint,static,upstream,late,0.3843,AAAATTAATGTTTTGCTGCTTTTACTGTCGCGT,9.7572,ARS1212,289219,289468,Confirmed,289463,122.823,NA,NA,NA,NA
oridb_525,chrXII,343854,+,g1_and_g2_footprint,downstream,upstream,late,0.1018,TTTTTTTTTGTTTTGTCAAGAGCCGCGCACAAA,11.1572,ARS1212.5,343576,344032,Confirmed,344230,27.3801,343711,NA,52.1207,NA
oridb_526,chrXII,373328,-,g1_and_g2_footprint,downstream,downstream,early,0.672,TTTTTTTATATTTTCTCCGTATTTATGAAAATT,17.4125,ARS1213,373155,373399,Confirmed,373277,38.2766,373463,372743,39.8139,146.917
oridb_530,chrXII,437555,-,g1_and_g2_footprint,static,NA,late,-0.1566,TAATTTTACGTTTTATTCATTTTTGATACGCAT,12.816,NA,426941,441941,Dubious,NA,NA,NA,NA,NA,NA
oridb_536,chrXII,513084,-,g1_and_g2_footprint,upstream,downstream,early,0.7607,TTTATTTATGTTTTTGTCACAAACGCGCACATG,18.3964,ARS1217,512866,513115,Confirmed,513033,33.492,513652,512864,181.885,121.293
oridb_538,chrXII,603110,-,g1_and_g2_footprint,static,downstream,early,0.5886,TTTTTTAATGTTTATGTTCAACATACCCGAAAC,16.4056,ARS1218,602938,603155,Confirmed,602967,54.9281,604001,602387,121.534,142.608
oridb_541,chrXII,622843,+,g1_and_g2_footprint,downstream,upstream,late,0.1013,TATTTATATATTTTGTTGTGAAAATGCCAAAAT,17.5008,ARS1219,622672,623123,Confirmed,622776,27.8192,622629,623849,37.9711,24.0704
oridb_543,chrXII,645171,-,g1_and_g2_footprint,static,downstream,late,-0.2594,TATTTTATCAATTAGTTTGCAGAATCGGGAAAA,10.307,ARS1219.7,644937,645426,Confirmed,645453,3.63775,646004,644651,2.22357,13.1597
oridb_544,chrXII,659892,+,g1_and_g2_footprint,static,downstream,early,0.6299,GCTTTTTATGTTTATTTCATGGATTACGAAATT,19.2063,ARS1220,659823,660072,Confirmed,660057,146.869,659564,660315,80.3462,131.142
oridb_551,chrXII,786360,-,g1_and_g2_footprint,static,upstream,late,-0.0091,ATTTTTTATATTTGGTATAACCGCTGAAGGTTA,6.9875,NA,785588,786917,Dubious,786551,5.13297,NA,NA,NA,NA
oridb_552,chrXII,794208,-,g1_and_g2_footprint,static,downstream,early,0.7184,AAAGTTTAAGTTTAGTTACGGGGTTTAATGTAA,16.4263,ARS1226,794020,794269,Confirmed,794394,32.6394,795403,793880,15.7496,49.3752
oridb_554,chrXII,822089,+,g1_and_g2_footprint,downstream,downstream,late,0.0805,TATTTTTATGTTTAAGAAAGGATTAAGAACAAT,15.5098,ARS1227,821907,822336,Confirmed,822281,22.9953,NA,823474,NA,22.6867
oridb_558,chrXII,888741,-,g1_and_g2_footprint,downstream,downstream,late,0.7121,GTTTTTTATGTTTAGATGTAAAAATTAATTTTT,20.0399,ARS1227.5,888569,888810,Confirmed,888396,8.71843,889312,NA,16.9567,NA
oridb_560,chrXII,928288,+,g1_and_g2_footprint,upstream,downstream,late,0.3149,AATATTATAGTTTTGTTAGTAATGTTGAACTTT,16.7604,ARS1229,928054,928543,Confirmed,928274,45.2221,NA,NA,NA,NA
oridb_564,chrXII,1007240,+,g1_and_g2_footprint,upstream,upstream,late,0.6866,TATTTTTATATTTTGTGTTTGCTAAGGTCTAAT,15.8338,ARS1232,1007185,1007475,Confirmed,1007276,19.3773,1006892,1008304,37.9711,8.7766
oridb_566,chrXII,1022408,+,g1_and_g2_footprint,static,downstream,late,-0.0483,AAAATTTACAATTATTTCTTTATTTAGATTGAT,10.9021,NA,1016309,1023309,Likely,NA,NA,NA,NA,NA,NA
oridb_567,chrXII,1024157,-,g1_and_g2_footprint,downstream,upstream,late,0.0083,CTTAATGATGTTTAGTTCTGAAATAACGATTTT,15.5075,ARS1234,1023972,1024212,Confirmed,1024196,71.3742,NA,NA,NA,NA
oridb_577,chrXIII,23986,+,g1_and_g2_footprint,static,downstream,early,0.0464,TTTTTGTATTATTTGTTCTAGTTTACAAGTTTT,11.5861,NA,23851,25690,Dubious,NA,NA,NA,NA,NA,NA
oridb_578,chrXIII,31766,+,g1_and_g2_footprint,upstream,upstream,early,0.6587,GTAGTTTATTATTAGTTGCCAAAACGAAACATT,14.6512,ARS1303,31687,31935,Confirmed,31643,37.3176,31413,31953,177.757,84.3554
oridb_584,chrXIII,94391,-,g1_and_g2_footprint,static,upstream,early,0.687,ATTAATTATATTTAGATATATATTCGTATTTTA,14.0159,ARS1305,94216,94463,Confirmed,94583,17.7768,94765,93864,69.1594,123.305
oridb_594,chrXIII,286947,-,g1_and_g2_footprint,downstream,downstream,early,0.6863,AGGATTTATGTTTTTTTGTTGCTTTGGAACTTT,15.0531,ARS1310,286783,287068,Confirmed,286884,67.1503,287819,286250,149.037,65.8254
oridb_604,chrXIII,433015,+,g1_and_g2_footprint,downstream,downstream,early,0.4884,CTACTTTACAATTAGTTACAATTTCTTTTTCTT,8.8394,ARS1315,432852,433348,Confirmed,433205,128.706,432959,NA,11.636,NA
oridb_607,chrXIII,480533,-,g1_and_g2_footprint,static,upstream,late,-0.3283,AATCTATATATTTAGTTCTTATAATAGATGAAT,15.1209,NA,480234,483638,Likely,NA,NA,NA,NA,NA,NA
oridb_609,chrXIII,503644,-,g1_and_g2_footprint,static,upstream,late,0.4129,AGATTTTACCTTTTGGCAAAAAATCAGCACATT,13.1798,ARS1319,503347,504088,Confirmed,503626,24.9183,NA,NA,NA,NA
oridb_610,chrXIII,535771,-,g1_and_g2_footprint,downstream,downstream,early,0.5351,TTAATTTATATTTAGTTTAGGATATAGATTATC,22.1259,ARS1320,535596,535844,Confirmed,NA,NA,NA,NA,NA,NA
oridb_612,chrXIII,554615,-,g1_and_g2_footprint,static,downstream,late,0.4511,ATAATTTATCATTTGTTGCCTCAAACTGATATT,14.8718,ARS1322,554393,554751,Confirmed,554377,86.4574,554940,554215,14.9809,68.2547
oridb_615,chrXIII,611318,+,g1_and_g2_footprint,static,upstream,early,0.3128,ATTGTTTATGTTTATGTTCTTTATACTCAAAAT,19.6901,ARS1323,611274,611489,Confirmed,611164,110.904,610196,611508,27.9661,134.037
oridb_616,chrXIII,634521,+,g1_and_g2_footprint,static,downstream,late,0.1733,TATTTTTACTATTTGTAATAATGATTCTGCTTT,12.1412,ARS1324,634480,634715,Confirmed,634629,94.8313,NA,NA,NA,NA
oridb_617,chrXIII,649362,+,g1_and_g2_footprint,downstream,downstream,early,0.622,TTATTTCATATTTTGTTGACATTTGAGAGCTTC,16.2911,ARS1325,649308,649552,Confirmed,649422,18.4895,648652,650110,18.7582,25.4248
oridb_620,chrXIII,758418,-,g1_and_g2_footprint,static,downstream,late,0.2655,AAATTTTATGTTTTTTTCTTCGTTTTGCGAAAA,14.3136,ARS1327,758223,758471,Confirmed,758261,154.95,758707,757825,21.2192,33.835
oridb_624,chrXIII,805162,+,g1_and_g2_footprint,upstream,downstream,early,0.0626,TATTTTTGTATTTAGTCTTTGTTTTCGAACTTT,18.3002,ARS1329,805116,805338,Confirmed,805135,7.44023,NA,NA,NA,NA
oridb_625,chrXIII,815391,+,g1_and_g2_footprint,downstream,upstream,early,0.6719,AAATTCTATGTTTTGTTCCTGAAATCTCGATAT,16.4772,ARS1330,815341,815567,Confirmed,815305,22.6091,814718,815960,166.074,182.314
oridb_628,chrXIII,878720,+,g1_and_g2_footprint,downstream,downstream,late,0.0799,TTTTTTTATGTTTTTTTATGATAATCTCTCAGC,16.5376,ARS1331.7,878619,879115,Confirmed,878775,50.4193,NA,879298,NA,23.1356
oridb_629,chrXIII,897977,-,g1_and_g2_footprint,static,upstream,early,0.5837,TTTTTTTATGTTTGGTTCTTGTTATTGAACAAA,18.0382,ARS1332,897804,898040,Confirmed,897979,21.0873,898559,897586,112.957,118.845
oridb_636,chrXIV,33265,+,g1_and_g2_footprint,upstream,downstream,late,-0.0262,TATGTTTGTGTTTATTTCTGAATAAAAATTTAT,12.5576,NA,28757,43757,Dubious,NA,NA,NA,NA,NA,NA
oridb_637,chrXIV,61858,-,g1_and_g2_footprint,static,downstream,late,0.3854,TTTATTTAAATTTTGCCATTTTATATGTACATT,18.3313,ARS1406,61598,61895,Confirmed,61565,44.5813,NA,61388,NA,24.8806
oridb_639,chrXIV,89757,-,g1_and_g2_footprint,static,downstream,early,0.6769,TATTTTTAAGTTTTGTTTGTTTTTTTTATTGTT,17.5423,ARS1407,89530,89804,Confirmed,89582,142.78,90548,88664,64.6006,29.0465
oridb_645,chrXIV,157528,-,g1_and_g2_footprint,static,downstream,late,-0.0962,TTGTTTTATTCTTTGTTGGCTATGTAGCCATTT,10.9783,NA,151281,166281,Dubious,NA,NA,NA,NA,NA,NA
oridb_646,chrXIV,169749,-,g1_and_g2_footprint,downstream,upstream,late,0.5209,TAATTTAACGTTTTGTTTCTTCCGTCATCATAT,14.0681,ARS1411,169567,169805,Confirmed,169792,115.973,NA,NA,NA,NA
oridb_650,chrXIV,250494,-,g1_and_g2_footprint,downstream,downstream,late,0.3276,ACAATTTGTATTTAGTTGGTGTGACCTCAAATT,11.9764,ARS1413,250260,250507,Confirmed,250458,9.55809,NA,250662,NA,5.22018
oridb_655,chrXIV,343586,-,g1_and_g2_footprint,static,upstream,late,0.0467,GATCTTCACATTTTGTTCTAGTATTATGATTTT,14.0463,NA,342966,344120,Likely,NA,NA,NA,NA,NA,NA
oridb_659,chrXIV,412442,-,g1_and_g2_footprint,downstream,downstream,late,0.6407,TTTTTTTATATTTCTGCCCAAAAAACGTAGTTC,9.679,ARS1417,412266,412496,Confirmed,412283,50.6682,NA,NA,NA,NA
oridb_660,chrXIV,415874,-,g1_and_g2_footprint,downstream,upstream,late,0.3853,ACTGTTAGTAATTTGGTTCGTTATTCTGTATAT,9.1083,NA,415734,416934,Likely,NA,NA,NA,NA,NA,NA
oridb_662,chrXIV,449537,-,g1_and_g2_footprint,downstream,upstream,late,0.6138,CATATTTACATTTAGCCCTTCTATAACCGTTTT,17.5194,ARS1419,449346,449591,Confirmed,449661,148.382,450095,448991,10.3268,19.2289
oridb_666,chrXIV,546150,-,g1_and_g2_footprint,static,upstream,early,0.161,TATTTTTACGTTTTGGCACGTGAATCTTCAGTA,15.8777,ARS1421,545970,546205,Confirmed,546118,39.7229,547604,545752,124.913,122.029
oridb_672,chrXIV,609536,+,g1_and_g2_footprint,upstream,downstream,early,0.5996,TTTTTTTATGTTTATTTTCTATTACTGATTTTC,19.2465,ARS1424,609462,609710,Confirmed,609726,11.3659,609230,610048,149.037,94.9964
oridb_674,chrXIV,635834,-,g1_and_g2_footprint,upstream,downstream,early,0.6203,TTTTTTTAATTTTAGTTAAGTTTTCTTCTAATT,18.4076,ARS1426,635663,635904,Confirmed,635602,40.9788,636593,635206,80.1425,122.266
oridb_682,chrXIV,738719,+,g1_and_g2_footprint,downstream,downstream,late,0.4997,CGCATTTATATTTAGTTAACATTATGTGAAATT,17.8529,ARS1428.5,738555,738987,Confirmed,738920,21.3721,NA,NA,NA,NA
oridb_688,chrXV,19330,-,g1_and_g2_footprint,downstream,downstream,late,-0.0259,TTATTTTATTTTTCTTTTCTAACTAAGTGAATA,11.2954,NA,18368,20228,Likely,18926,49.1586,NA,NA,NA,NA
oridb_690,chrXV,35714,+,g1_and_g2_footprint,downstream,upstream,early,0.3962,TATATTTATATTTAGAGGCCTATATTGCGCATC,15.9814,ARS1506.5,35668,35904,Confirmed,35750,5.27595,35282,36071,91.1714,14.3827
oridb_692,chrXV,72688,+,g1_and_g2_footprint,static,upstream,late,0.0147,TTTTTTTACTTTTAGTTTATTTTTTTAGACTTT,20.2365,ARS1507,72637,72873,Confirmed,72606,83.8193,NA,73275,NA,7.87498
oridb_694,chrXV,85361,-,g1_and_g2_footprint,static,downstream,late,0.0679,TATATTTATGTTTATGTTCCATCATGTAGAAAA,16.1971,ARS1508,85196,85445,Confirmed,85062,9.13247,86112,84877,20.7402,61.5383
oridb_696,chrXV,113895,+,g1_and_g2_footprint,downstream,upstream,early,0.6482,ATTGTTTATATTTTTGTACCACAAACATCATTA,12.5997,ARS1509,113844,114085,Confirmed,113811,32.6679,113222,114729,41.3362,123.424
oridb_700,chrXV,167003,+,g1_and_g2_footprint,downstream,downstream,early,0.6436,TTTATTTATGTTTTCGTTATATTTTCAACATTT,17.6468,ARS1510,166975,167221,Confirmed,167118,28.0318,166809,167489,157.169,129.714
oridb_704,chrXV,277733,-,g1_and_g2_footprint,downstream,upstream,early,0.7046,GTTGTTTATCTTTTGTTATTAAAGCTCTACTTT,18.1132,ARS1511,277529,277778,Confirmed,277737,60.1542,278581,277397,118.312,115.854
oridb_705,chrXV,309265,-,g1_and_g2_footprint,static,downstream,early,0.2808,GAAAATTATATTTTGTCATGAAGTAATCTATTC,11.0193,ARS1512,308969,309462,Confirmed,309193,21.7882,309548,308418,71.4654,25.6011
oridb_707,chrXV,337484,-,g1_and_g2_footprint,static,downstream,early,0.4992,TCTTTTTACCTTTTGTCACCATATTAAATCTTT,16.4081,ARS1513,337279,337528,Confirmed,337594,24.5202,338182,336876,162.8,132.792
oridb_716,chrXV,489833,+,g1_and_g2_footprint,downstream,upstream,early,0.4475,TTAATTTATCATTATTTACAATATTAACTAATC,14.9699,ARS1514,489644,490128,Confirmed,490259,6.68948,489461,490554,40.2937,38.9183
oridb_718,chrXV,497417,-,g1_and_g2_footprint,static,upstream,late,0.137,ATTATTTATAATTTTTGATTATAAACATGAAAT,11.8115,ARS1515.5,497144,497603,Confirmed,NA,NA,NA,NA,NA,NA
oridb_721,chrXV,566598,-,g1_and_g2_footprint,upstream,upstream,late,0.6291,AAATTTTACCTTTTGATGCGGAATTGACTTTTT,13.7905,ARS1516,566409,566643,Confirmed,566847,16.0617,NA,NA,NA,NA
oridb_724,chrXV,605336,+,g1_and_g2_footprint,static,downstream,late,-0.1229,ACAAATTATGTTTAGTAGCGTTCTTTTAATCTA,11.8418,NA,601221,608221,Likely,NA,NA,NA,NA,NA,NA
oridb_728,chrXV,656701,+,g1_and_g2_footprint,downstream,downstream,late,0.5253,CTATTTAATGATTAGTAAGACAAAAATGACATT,14.2171,ARS1519,656632,656876,Confirmed,656844,104.953,656660,657078,34.4713,39.0005
oridb_729,chrXV,663645,+,g1_and_g2_footprint,static,downstream,late,0.1767,CGTATTTATGTTTTCTTTGTGGTATATAATATA,12.9095,NA,662888,663957,Likely,NA,NA,NA,NA,NA,NA
oridb_731,chrXV,681366,-,g1_and_g2_footprint,upstream,upstream,late,0.5028,ATTTTTAATATATAGTTCTGAAAGTCTATTTTT,17.559,ARS1520,681112,681611,Confirmed,681520,28.306,NA,NA,NA,NA
oridb_733,chrXV,729795,+,g1_and_g2_footprint,static,upstream,late,0.3538,TATTTTTATATTTTGGCCGGTTTATGGATAGAA,14.1731,ARS1521,729739,729969,Confirmed,729786,64.6529,NA,NA,NA,NA
oridb_736,chrXV,766689,+,g1_and_g2_footprint,downstream,downstream,late,0.6742,GTATTTTACGTTTTTTCATAATCATATACTTTC,13.1257,ARS1523,766617,766862,Confirmed,766751,25.996,766168,767091,21.095,19.2291
oridb_737,chrXV,783386,+,g1_and_g2_footprint,upstream,upstream,late,0.2157,TATTTTTAACTTTTGGTTTTGAAGCTCGTAATT,17.7403,ARS1524,783344,783563,Confirmed,783186,12.2422,NA,NA,NA,NA
oridb_740,chrXV,874372,-,g1_and_g2_footprint,downstream,upstream,late,0.0914,ACATTTTAATATTTGTTAGGATTCGCCTTTATT,11.1521,ARS1526,874193,874437,Confirmed,874318,16.7492,874537,873588,22.501,11.8697
oridb_744,chrXV,908313,+,g1_and_g2_footprint,static,upstream,early,0.7759,TTTGTTTATGTTTAGGTTAACGATAGACATATT,21.252,ARS1528,908295,908544,Confirmed,908122,43.4535,907899,908964,100.447,89.7204
oridb_751,chrXV,1053698,+,g1_and_g2_footprint,static,downstream,early,0.7372,TTTGTTTAAATTTTGTTCGGTCTCGGCTATATT,16.5822,ARS1529.5,1053496,1053907,Confirmed,1053923,12.3013,1052638,1054121,132.05,123.538
oridb_760,chrXVI,43163,-,g1_and_g2_footprint,upstream,upstream,late,0.3264,TATTTTTATGTTTTTGTTTATATTTTTGAATTT,21.0212,ARS1604,42976,43212,Confirmed,43306,77.4436,43641,42321,15.3239,6.59124
oridb_764,chrXVI,116593,+,g1_and_g2_footprint,downstream,downstream,late,0.3449,TATTTTTATGTTTTGTTCCATACTAAATGCAGT,18.2291,ARS1607,116505,116765,Confirmed,116718,67.741,NA,NA,NA,NA
oridb_766,chrXVI,162472,+,g1_and_g2_footprint,static,downstream,late,0.524,TTTTTTTATGATTTAGTCCAAAATATCACTATT,16.7373,NA,161694,163448,Likely,162504,18.7375,NA,162814,NA,4.7987
oridb_767,chrXVI,179084,-,g1_and_g2_footprint,static,upstream,late,-0.2509,TTAATTATAGTTTACGTACGTAATCGCTGTCAT,9.5454,NA,178644,179828,Likely,179199,13.7346,NA,NA,NA,NA
oridb_770,chrXVI,210822,-,g1_and_g2_footprint,upstream,upstream,late,0.6044,ATTTTTGATGTTTAGGTTACCAATATCTCATTA,14.7104,ARS1609,210468,211724,Confirmed,210896,61.2838,NA,NA,NA,NA
oridb_778,chrXVI,289531,+,g1_and_g2_footprint,downstream,upstream,early,0.7236,ATAATTAATGTTTACTTCAGACAATAAAACATT,16.5343,ARS1614,289484,289705,Confirmed,289449,8.1282,288898,289853,92.7309,55.0484
oridb_787,chrXVI,384597,+,g1_and_g2_footprint,downstream,downstream,early,0.2415,AAAATTTATGTTTATGTGGCGTAAAATATCTTT,18.7852,ARS1618,384541,384789,Confirmed,384640,38.0445,384157,385323,34.1851,44.6934
oridb_789,chrXVI,418183,+,g1_and_g2_footprint,downstream,downstream,early,0.7294,CTTATTTACAATTAGTTTTCTCAGAACGATATT,16.2069,ARS1619,418137,418364,Confirmed,418217,16.7201,417619,418457,121.534,103.003
oridb_793,chrXVI,454100,+,g1_and_g2_footprint,static,upstream,late,0.283,GATTTTTAGGTTTAGTTCTTCCAAAGCGGAATC,13.5051,NA,453663,454632,Likely,454350,2.09003,456095,NA,9.04288,NA
oridb_798,chrXVI,511708,+,g1_and_g2_footprint,static,upstream,early,0.6049,TATTTTTATGTTTTTTGAGATATTTCGAGCTTT,18.7796,ARS1621,511623,511944,Confirmed,511516,11.3659,511339,512461,51.3959,26.42
oridb_807,chrXVI,608624,-,g1_and_g2_footprint,static,downstream,late,-0.3633,TATATTTTATTTTTGTTATTTTTCTGACGTATC,10.2164,NA,608479,609679,Dubious,NA,NA,NA,NA,NA,NA
oridb_809,chrXVI,633926,+,g1_and_g2_footprint,downstream,downstream,early,0.74,GTTTTTATAGTTTAGTTGGTTTTGTTTAATTTC,14.4813,ARS1623,633873,634122,Confirmed,633695,5.56248,633216,634400,52.8381,84.2859
oridb_811,chrXVI,684410,+,g1_and_g2_footprint,upstream,upstream,early,0.5559,TTTTTTTACTTTTTGTTTCTTTATTAATTTTTT,17.231,ARS1624,684388,684637,Confirmed,684255,18.6834,683682,685104,86.4302,88.9383
oridb_813,chrXVI,695470,+,g1_and_g2_footprint,downstream,upstream,late,0.1725,AATTTTTATATTTGGTTCGAAAATTATGACATT,20.8511,ARS1625,695437,695686,Confirmed,695525,99.6212,695387,696042,43.6805,22.7217
oridb_817,chrXVI,777099,-,g1_and_g2_footprint,upstream,downstream,early,0.7857,TTTATTTATATTTTGGCATTACTCTTCATCATT,18.2426,ARS1626.5,776925,777156,Confirmed,776993,27.8192,777870,775531,68.5743,78.556
oridb_818,chrXVI,819346,-,g1_and_g2_footprint,downstream,downstream,early,0.5673,AATTTTTATATTTATTCATGATATATTAATATT,20.8951,ARS1627,819159,819399,Confirmed,819561,18.0893,819784,818662,139.299,18.475
oridb_824,chrXVI,880911,+,g1_and_g2_footprint,downstream,downstream,late,0.4636,ATATTTTATGTTTAGGTTAATAACTTTGGTAAT,21.7175,ARS1630,880860,881108,Confirmed,881157,86.5732,NA,880953,NA,4.7987
