name,chr,pos,strand,footprint_class,nucleosome_shift_class,mcm_loading_class,activation_time,derived_origin_efficiency_from_mcguffee_et_al_2013,acs_sequence,log2_acs_motif_score,ars_name,ars_start,ars_end,oridb_status
oridb_3,chrI,8221,-,g1_and_g2_footprint,downstream,downstream,late,-1,GCTTTTTACTATTTGGGCCAGTATATCGGTATT,10.3753,ARS103,7997,8547,Confirmed
oridb_7,chrI,42043,+,g1_and_g2_footprint,downstream,downstream,late,0.0319,AAAATTAACAATTAGGTTCATAGTCCCCTAATT,15.4399,ARS105,40715,43300,Confirmed
oridb_8,chrI,70432,-,g1_and_g2_footprint,upstream,upstream,late,0.5054,ATTTTTTATGTTTAGAAACAAAATTTCCCCGAG,10.218,ARS106,70256,70489,Confirmed
oridb_10,chrI,124527,-,g1_and_g2_footprint,downstream,upstream,early,0.1319,ATTTTTTATATTTAAGTCTTGATTAACTGCTTT,19.1554,ARS107,124348,124597,Confirmed
oridb_11,chrI,137561,+,g1_and_g2_footprint,static,downstream,early,-0.0233,CTTTTTTATTTTTGGTATTTCATTTATCCTATA,10.1736,ARS107.5,136898,137898,Confirmed
oridb_15,chrI,176234,+,g1_and_g2_footprint,downstream,downstream,early,0.3999,TCTTTTTATGTTTTCTTATGATTGAATTATTTA,15.6285,ARS110,176156,176404,Confirmed
oridb_26,chrII,63377,-,g1_and_g2_footprint,downstream,downstream,early,0.6789,TTTTTTTAATTTTTGTCACGAAATCCTGGTATT,18.1913,ARS202,63192,63427,Confirmed
oridb_29,chrII,93539,+,g1_and_g2_footprint,downstream,upstream,late,0.0556,AGATATTATATTTATGTAAGAATTAAATTAATA,12.1616,ARS203,93412,93812,Confirmed
oridb_33,chrII,143746,-,g1_and_g2_footprint,upstream,upstream,late,0.1533,AAAATTTACGATTTTTCCTCCAATCTTGGCTTT,12.5602,ARS206,142906,144054,Confirmed
oridb_34,chrII,170261,-,g1_and_g2_footprint,static,downstream,late,0.1627,CAGTTTTATATTTAGTGAACATATGGGCAATTC,14.8581,ARS207,170087,170336,Confirmed
oridb_37,chrII,198423,-,g1_and_g2_footprint,static,upstream,early,0.7346,TAATTTAATGATTAGGCAAGCTTATTGTTAAAC,14.6093,ARS207.5,198231,198472,Confirmed
oridb_40,chrII,237874,-,g1_and_g2_footprint,static,upstream,early,0.4776,ACTTTTTACTTTTAGTTAAACTATTAAAGAATA,16.603,ARS208,237683,237918,Confirmed
oridb_42,chrII,255090,-,g1_and_g2_footprint,downstream,upstream,early,0.5841,TTTATTTATTTTTATGTTTTGTATTTGGATTTT,19.1159,ARS209,254933,255179,Confirmed
oridb_48,chrII,296115,+,g1_and_g2_footprint,static,upstream,late,-0.334,TTTGTTTATAATTTTTTTTTTTTTTTTTTTTTT,11.0685,NA,296041,306041,Dubious
oridb_50,chrII,326193,+,g1_and_g2_footprint,upstream,upstream,early,0.6585,ATTTTTTACATTTTTTTAAGCCATAACGGATTT,17.6706,ARS211,326139,326375,Confirmed
oridb_68,chrII,622809,-,g1_and_g2_footprint,upstream,upstream,early,0.5095,TGAATTTAAGCTTAGGTACCCAACTTTACATTT,13.0309,ARS220,622670,622939,Confirmed
oridb_70,chrII,632050,+,g1_and_g2_footprint,downstream,downstream,early,0.3784,TTTATTTATATTTATTTTTCGTTTCCTATTTTT,18.7855,ARS221,631979,632291,Confirmed
oridb_73,chrII,704343,+,g1_and_g2_footprint,static,upstream,late,0.5435,TATATATATATTTAGGTAAATCATTTACACTTT,18.3593,ARS222,704295,704566,Confirmed
oridb_77,chrII,741787,-,g1_and_g2_footprint,upstream,upstream,late,0.2938,ATTTTTAACGTTTTGTTTGTCCCACTTGGTATT,16.4153,ARS224,741557,741847,Confirmed
oridb_93,chrIII,39592,-,g1_and_g2_footprint,downstream,downstream,early,0.7025,TTTTTATATGTTTTGTTATGTATTGTTTATTTT,21.0076,ARS305,39158,39706,Confirmed
oridb_94,chrIII,54938,-,g1_and_g2_footprint,downstream,upstream,late,-0.5451,CTTTTTTTTTTTTTGTTACATAAAACTTTGCTT,9.1369,NA,53807,55007,Dubious
oridb_95,chrIII,74518,+,g1_and_g2_footprint,downstream,upstream,early,0.4748,TGTATTTATATTTATTTAGTACTTCTTGAGTTT,17.0869,ARS306,74457,74677,Confirmed
oridb_99,chrIII,132043,+,g1_and_g2_footprint,static,downstream,early,0.5361,ATTGTTTATATCTTGTTTTGAAGTTTTAGCTTT,14.0525,ARS309,131984,132328,Confirmed
oridb_103,chrIII,166713,-,g1_and_g2_footprint,upstream,upstream,early,0.5782,TTTTTTTACTTTTTGCTCTAAGAGTTACGATTA,16.0258,ARS310,166502,167348,Confirmed
oridb_108,chrIII,205749,-,g1_and_g2_footprint,static,downstream,late,-0.1539,ATTTTTTTTATTTATTTAATCCAAGAGTTATTC,11.5319,ARS314.5,203884,207542,Confirmed
oridb_110,chrIII,224861,+,g1_and_g2_footprint,static,downstream,early,0.7846,TTTTTTTATGTTTTTCTTCGCGCGTCAACTTTC,12.0237,ARS315,224815,225061,Confirmed
oridb_112,chrIII,273031,-,g1_and_g2_footprint,upstream,downstream,late,0.3055,TTTTTTCAAATTTAGTTCTTCGTTGCCTACATT,14.9434,ARS316,272851,273095,Confirmed
oridb_114,chrIII,294821,+,g1_and_g2_footprint,downstream,downstream,late,0.0649,ATTTATCATGTTTTGGTATGATAATTTAATTTT,18.4244,ARS318,294403,295034,Confirmed
oridb_115,chrIII,310940,-,g1_and_g2_footprint,static,downstream,late,-1,CAATTTCATGTTCATTTGTTTATCTACCGCTTA,10.3952,NA,304370,311370,Likely
oridb_121,chrIV,46229,-,g1_and_g2_footprint,static,upstream,late,0.6938,AAATTTAATATTTTGGATGAAAAAAACCATTTT,11.5099,ARS404,46180,46236,Confirmed
oridb_125,chrIV,101257,-,g1_and_g2_footprint,static,downstream,late,-0.2018,AGTATAAATGTTTAGTTTTATCCTACATACATA,13.6694,ARS405.5,100379,101354,Confirmed
oridb_126,chrIV,123794,-,g1_and_g2_footprint,downstream,upstream,late,0.8108,TTAATATATATTTAGTTACTTTTTCCCTCTAAT,15.4106,ARS406,123616,123901,Confirmed
oridb_127,chrIV,137678,-,g1_and_g2_footprint,static,upstream,late,-0.0231,TATTTTTATAATTACTTACAGATTGTTGTTCTT,14.4636,ARS407,137444,137807,Confirmed
oridb_130,chrIV,212593,-,g1_and_g2_footprint,static,upstream,late,0.5622,TTTTTTTATATTTTGTTGTTGGTTTCAGGAAAA,17.3217,ARS409,212419,212668,Confirmed
oridb_133,chrIV,236067,-,g1_and_g2_footprint,static,downstream,late,0.2972,CCTTTTTATATTTATTTTCAAATTTGTCAAAAA,11.9923,ARS409.5,235936,236185,Confirmed
oridb_136,chrIV,316863,+,g1_and_g2_footprint,static,upstream,late,0.1317,TAATTTTAAATTTTGTTCTTTTCCTAAACAATT,16.6526,ARS412,316720,317112,Confirmed
oridb_137,chrIV,329672,+,g1_and_g2_footprint,static,downstream,early,0.7341,GGTGTTTATATTTAGGTAGGGCATAAGGATTTA,18.1477,ARS413,329565,329814,Confirmed
oridb_139,chrIV,358549,-,g1_and_g2_footprint,static,downstream,late,-0.0451,GATTTTAAAATTTTGCTTAAGATGATTTACATT,13.3636,NA,357807,359007,Dubious
oridb_141,chrIV,408134,+,g1_and_g2_footprint,downstream,downstream,early,0.4155,TTATATTATATTTAGCGATGTAATGAAAGTAAA,11.7412,ARS414,408074,408316,Confirmed
oridb_144,chrIV,462609,-,g1_and_g2_footprint,static,downstream,early,0.536,AGATTTTATGTTTAGATCTTTTATGCTTGCTTT,19.3481,ARS416,462434,462704,Confirmed
oridb_149,chrIV,567585,+,g1_and_g2_footprint,downstream,upstream,early,0.021,TTTTTTCACGTTTTGCCTTTTATATACCGATTA,15.8889,ARS419,567495,567742,Confirmed
oridb_151,chrIV,629332,-,g1_and_g2_footprint,upstream,downstream,late,0.1641,GAAATTAATGTTTAGCGATCTAATAGTGATCTT,14.8495,ARS420,629079,629676,Confirmed
oridb_152,chrIV,640069,-,g1_and_g2_footprint,upstream,upstream,late,0.3842,TTTTTTAAAGTTTTGGTCGTTGAAAAAGGATTC,13.9313,ARS421,639866,640115,Confirmed
oridb_159,chrIV,753340,-,g1_and_g2_footprint,downstream,downstream,late,0.4364,TTTTTTTACATTTTGCTTCAAAATAATGACTTT,18.9128,ARS423,753166,753398,Confirmed
oridb_171,chrIV,913865,+,g1_and_g2_footprint,downstream,downstream,early,0.6357,TATTTTTATATTTTGTTTCTTGCGTGGAGTTTT,19.1262,ARS428,913789,914038,Confirmed
oridb_172,chrIV,921745,+,g1_and_g2_footprint,downstream,downstream,early,0.2915,GATTTTAATGATTAGTTGGGCTTTTGGCTACAT,14.7725,ARS429,921691,921939,Confirmed
oridb_178,chrIV,1021688,-,g1_and_g2_footprint,static,downstream,early,0.4082,TTTATTTCAGTTTTTTCGTTAATATTAGATCTC,9.2738,NA,1021554,1022264,Likely
oridb_180,chrIV,1057896,+,g1_and_g2_footprint,upstream,upstream,late,0.5269,ATTTTTTATGTTTATTCCATATATACACTTATA,20.5117,ARS431,1057837,1058085,Confirmed
oridb_185,chrIV,1166182,-,g1_and_g2_footprint,static,upstream,early,0.6275,TTTATTTACATTTTGTCGGAATATTATTTCTTC,17.628,ARS432.5,1166009,1166232,Confirmed
oridb_187,chrIV,1240931,+,g1_and_g2_footprint,downstream,upstream,late,0.4865,TTGATTTATATTTAGTCCAAATATTACAGAAAA,15.7328,ARS433,1240881,1241110,Confirmed
oridb_189,chrIV,1276289,+,g1_and_g2_footprint,upstream,upstream,late,0.362,TTTTTTTATGTTTCCCCCCCAAAGTTCTGATTT,13.2113,ARS434,1276224,1276452,Confirmed
oridb_190,chrIV,1302768,-,g1_and_g2_footprint,downstream,upstream,late,0.6599,CAAATATATATTTAGTTAATGAAAATGGAATTA,14.6851,ARS435,1302591,1302831,Confirmed
oridb_191,chrIV,1305715,+,g1_and_g2_footprint,static,upstream,late,0.4403,ATTTTTAATGTTTTTATTTGGTAGCAACAAAAT,11.8358,NA,1305258,1306813,Dubious
oridb_193,chrIV,1353585,+,g1_and_g2_footprint,upstream,upstream,late,0.7143,CAAATTAATATTTATGAACGTTATGATGTCAAG,8.0574,ARS437,1353506,1353679,Confirmed
oridb_197,chrIV,1404334,+,g1_and_g2_footprint,static,downstream,late,0.5769,TCTTTTTATATTTTGGAATGTTTTTGTGCTAAA,12.3319,ARS440,1404289,1404524,Confirmed
oridb_201,chrIV,1462059,+,g1_and_g2_footprint,static,upstream,late,0.6529,ATAATTTATGTTTAGCTCTTACTTTAATCCCAA,16.283,ARS442,1461861,1462173,Confirmed
oridb_205,chrIV,1496012,-,g1_and_g2_footprint,static,downstream,late,-0.063,TTTATTTATCTATAGTCTGAACTTAAAATTTTA,12.0115,NA,1495303,1502303,Likely
oridb_206,chrIV,1502801,-,g1_and_g2_footprint,static,downstream,late,0.0721,TATAATTATGTTTTTGTGAGAAATTTTAGCTTT,18.8302,ARS447,1502636,1503234,Confirmed
oridb_216,chrV,59470,-,g1_and_g2_footprint,upstream,upstream,early,0.6105,AATATTTACATTTTGATACTGTCCATCAGATTT,14.2527,ARS507,59282,59516,Confirmed
oridb_218,chrV,94055,+,g1_and_g2_footprint,upstream,downstream,early,0.7207,CAAGTTTATATTTTGTTGCTAGCGTTACGGTTA,15.2893,ARS508,93977,94218,Confirmed
oridb_222,chrV,173809,-,g1_and_g2_footprint,upstream,upstream,early,0.5677,TAATTTTATATTTTGCCTTGAAATTTAATCATG,17.1013,ARS511,173637,173875,Confirmed
oridb_227,chrV,276364,+,g1_and_g2_footprint,static,upstream,late,0.0509,ATTATTTCTGTTTAGTTGATAAATTTTGATTTC,17.615,ARS513.5,276129,276528,Confirmed
oridb_229,chrV,287567,+,g1_and_g2_footprint,downstream,downstream,early,0.4205,TTTATTTATGTTTTGTTCCCAGCGGGCATCTTT,19.8211,ARS514,287506,287752,Confirmed
oridb_232,chrV,353586,+,g1_and_g2_footprint,static,upstream,early,0.6488,AATATTTACTTTTTGGTGCGGAAATCTGTAATA,17.7631,ARS516,353508,353755,Confirmed
oridb_233,chrV,406907,-,g1_and_g2_footprint,static,upstream,early,0.4863,TTTTTTTATATATAGTCCCGCTCTCAAGTGAAT,12.3605,ARS517,406751,406953,Confirmed
oridb_236,chrV,439106,-,g1_and_g2_footprint,downstream,downstream,early,0.6944,ATTTTTTAAGTTTTGCGCCTTTAGCTCATGTTT,16.3863,ARS518,438933,439182,Confirmed
oridb_241,chrV,520874,+,g1_and_g2_footprint,static,downstream,late,0.0472,AATAAATATGTTTAGTTATCATACACCATAGAA,9.7723,ARS521,520772,521030,Confirmed
oridb_242,chrV,549687,-,g1_and_g2_footprint,downstream,upstream,late,0.267,TAATTTAATATTTTTTTTCCGAATTACAACAAT,17.3496,ARS522,549565,549814,Confirmed
oridb_252,chrVI,32973,-,g1_and_g2_footprint,static,downstream,late,0.0888,AATTTATACGTTTAGTTTTAACATCATCACAAT,18.2835,ARS602,32666,33247,Confirmed
oridb_255,chrVI,68858,-,g1_and_g2_footprint,downstream,downstream,late,0.3181,TAATTTCATATTTTGTATCAAAACTTTAAAATC,13.6997,ARS603,68692,68871,Confirmed
oridb_258,chrVI,118657,+,g1_and_g2_footprint,upstream,downstream,early,0.2342,TTAATTAATGTTTCTTCCCTGAAAATATGGAAA,7.2479,ARS603.5,118636,118957,Confirmed
oridb_260,chrVI,136050,-,g1_and_g2_footprint,static,downstream,early,0.5287,ATTAATTACGTTTTGTTGCTAAAGGAAACTTTA,17.0379,ARS605,135984,136085,Confirmed
oridb_261,chrVI,167739,-,g1_and_g2_footprint,downstream,downstream,early,0.6354,TATATTTATATTTTCGTTTGCAATTTCGCAATT,17.4731,ARS606,167613,168048,Confirmed
oridb_262,chrVI,199413,+,g1_and_g2_footprint,downstream,downstream,early,0.6923,CTTGTTTATATTTAGTTACGTTGGGATCAAGTT,16.8655,ARS607,199394,199505,Confirmed
oridb_263,chrVI,216481,+,g1_and_g2_footprint,downstream,downstream,late,0.0917,TTTTTTTACTTTTAGTTTTCTTCTATGCGCAAG,13.2265,ARS608,216356,216704,Confirmed
oridb_271,chrVII,17922,-,g1_and_g2_footprint,downstream,downstream,late,0.3994,ATTATTATGGTTTAGTTATAGAAGTTCATCATT,13.706,ARS700.5,17629,18112,Confirmed
oridb_274,chrVII,64459,-,g1_and_g2_footprint,downstream,downstream,late,0.6232,ATTTTTAATATTTTGTTTCTCGTTTTGCCTTAT,16.7608,ARS702,64280,64529,Confirmed
oridb_276,chrVII,112124,+,g1_and_g2_footprint,static,upstream,late,0.4579,ATTTTATACGTTTATGTCTATTTCAATGCAATT,15.7423,ARS704,112078,112317,Confirmed
oridb_279,chrVII,163235,+,g1_and_g2_footprint,downstream,downstream,early,0.5516,TCATTTTATAATTTGTTGTTACAAACAGTATTT,16.5093,ARS707,163176,163443,Confirmed
oridb_282,chrVII,187385,+,g1_and_g2_footprint,static,upstream,late,0.0489,AGATTTTATATCTAGTCCGGAAAAAGAAGGAAA,6.0043,ARS709,187237,187647,Confirmed
oridb_289,chrVII,286003,+,g1_and_g2_footprint,downstream,downstream,early,0.7475,TTTATTTACTTTTAGTCCGTATACTTTTATTTT,19.4044,ARS714,285947,286242,Confirmed
oridb_290,chrVII,288012,-,g1_and_g2_footprint,downstream,downstream,early,0.6296,ATTTTTTACATTTGTTCTATCAGTTAGTAAAAT,11.1244,NA,287948,289009,Likely
oridb_294,chrVII,388847,-,g1_and_g2_footprint,upstream,upstream,early,0.6433,TTTATTTAACTTTTGTTCCTAATTATGTATTAG,15.6031,ARS717,388657,388891,Confirmed
oridb_295,chrVII,421280,-,g1_and_g2_footprint,static,upstream,early,0.7505,TAAATTATTGTTTAGTTTTGATTAGCTTTACTT,15.8914,ARS718,421089,421338,Confirmed
oridb_298,chrVII,485111,-,g1_and_g2_footprint,downstream,upstream,early,0.726,TTTATTTATGTTTTGCCGTAAGATCGATACTTT,20.3179,ARS719,484929,485157,Confirmed
oridb_299,chrVII,508908,-,g1_and_g2_footprint,upstream,downstream,early,0.6719,CATTTTAATGTTTGGTTGTGAATTGAAAGAATA,16.921,ARS720,508728,508977,Confirmed
oridb_306,chrVII,591933,+,g1_and_g2_footprint,static,upstream,late,0.0477,AATATATATGTTTAGCGAAAAAAAAGGCCAAAA,7.3009,NA,591599,592799,Dubious
oridb_311,chrVII,660001,-,g1_and_g2_footprint,upstream,upstream,early,0.6823,ATATTTTATGTTTACTTATGTTAACCTGCATTA,20.2386,ARS727,659808,660053,Confirmed
oridb_318,chrVII,834665,-,g1_and_g2_footprint,downstream,downstream,early,0.7377,TTGTATATAGTTTAGTTACCATTTCCGTACTTT,11.8909,ARS731,834490,834734,Confirmed
oridb_322,chrVII,888412,+,g1_and_g2_footprint,downstream,downstream,early,0.6211,TATTTTAATATTTTGTTCTTTAGTTTTAAAAAT,19.9444,ARS731.5,888348,888597,Confirmed
oridb_323,chrVII,916908,+,g1_and_g2_footprint,downstream,downstream,late,0.0137,TTTTTTTAGGTTTTTGCTTTATATTCTTTCTTT,13.1234,ARS732,916673,917168,Confirmed
oridb_326,chrVII,999502,+,g1_and_g2_footprint,downstream,downstream,late,0.6162,AAAGTTCATGTTTTGTTATTTCTTTCTCACATA,16.2937,ARS734,999446,999692,Confirmed
oridb_327,chrVII,1002286,+,g1_and_g2_footprint,static,upstream,late,0.5822,ATTTATTTCATTTTCTTAGAATAGTTTAGTTTA,9.014,ARS735,1002179,1002568,Confirmed
oridb_330,chrVII,1063500,+,g1_and_g2_footprint,static,downstream,late,0.327,AATGTTCATATTTAGTCAAGTTCTTAATGAAAT,13.3161,ARS735.5,1063250,1063711,Confirmed
oridb_336,chrVIII,7756,-,g1_and_g2_footprint,static,downstream,late,-1,TATTTTTATATTTAGGTGATTTTAGTGGTTATT,23.2374,ARS802,7535,7783,Confirmed
oridb_338,chrVIII,45796,-,g1_and_g2_footprint,static,downstream,late,0.1458,AAAGTTAATATTTAGTACCGATACTATACATTA,16.4462,ARS804,45591,46078,Confirmed
oridb_339,chrVIII,59063,+,g1_and_g2_footprint,static,downstream,late,0.3545,ATATTTTAATTTTTGGTAGATTTTTTTTTTTTT,12.2813,NA,56653,59175,Likely
oridb_340,chrVIII,64302,+,g1_and_g2_footprint,downstream,upstream,early,0.4105,TAATTTTAATTTTAGTTATTGATTTCAATGAAA,14.5253,ARS805,64258,64493,Confirmed
oridb_345,chrVIII,116421,-,g1_and_g2_footprint,static,downstream,early,0.4714,AAATAGTATGTTTTGGTGTTAAAGAAGAACATT,12.1741,NA,115690,117264,Likely
oridb_346,chrVIII,133539,-,g1_and_g2_footprint,static,downstream,early,0.4435,TATTTTAACATTTAGTTTGTGATTTCCGGTAAA,18.9215,ARS807,133356,133600,Confirmed
oridb_349,chrVIII,168605,+,g1_and_g2_footprint,static,downstream,late,0.1215,TATTTAGACATTTAGTTTAGTATTCTAGGTGCT,6.7564,ARS809,168540,168782,Confirmed
oridb_355,chrVIII,245788,+,g1_and_g2_footprint,upstream,downstream,late,0.6366,CTATTTTATGATTAGTTGCAAAACTTGAAAAAA,16.7542,ARS813,245718,245967,Confirmed
oridb_360,chrVIII,344444,-,g1_and_g2_footprint,static,downstream,late,-0.2209,TGAAATTATATTTAGGAAACTGGGATCGATGTT,4.7448,NA,344373,345083,Likely
oridb_361,chrVIII,359712,-,g1_and_g2_footprint,downstream,upstream,late,0.4389,TATTTTTATAATTTGGCCTCCAAATGTAAAAAT,15.7965,ARS816,359467,359926,Confirmed
oridb_364,chrVIII,392248,-,g1_and_g2_footprint,downstream,downstream,late,0.3738,ACTTTTCATGTTTTGTTGTAGAGAGCCCATTTA,15.2168,ARS818,392147,392390,Confirmed
oridb_366,chrVIII,447795,-,g1_and_g2_footprint,downstream,downstream,early,0.7438,TATGTTTATGTTTTGTGAGTAAAGTCAAGAATT,21.4473,ARS820,447621,447855,Confirmed
oridb_383,chrIX,51502,-,g1_and_g2_footprint,static,downstream,late,-0.0224,AGTGTTTATATTCTATTTCCAATACATAATATA,8.2501,NA,50806,52259,Dubious
oridb_384,chrIX,73969,-,g1_and_g2_footprint,upstream,downstream,late,0.1799,CAAATTTAAGTTTCTTTATATATTCCTTACTTT,11.8207,ARS907,73803,74220,Confirmed
oridb_387,chrIX,113656,+,g1_and_g2_footprint,upstream,downstream,late,0.0716,TGAAATTTGGTTTAGTTATTTAAGTGAATTGTA,4.3033,NA,112737,114306,Dubious
oridb_389,chrIX,163135,-,g1_and_g2_footprint,static,downstream,late,-0.0216,TTTGTTTATATTTTTCTATAACTGTTTTCCTTT,12.9425,ARS911.5,162939,163305,Confirmed
oridb_390,chrIX,175173,+,g1_and_g2_footprint,downstream,upstream,late,0.1795,ATGTTTTATGTTTTGTCTGGAAAAACATATAGT,14.4972,ARS912,175037,175358,Confirmed
oridb_399,chrIX,245883,-,g1_and_g2_footprint,upstream,downstream,early,0.1332,TTTTTTAATGTTTTGTCCTTATAACGCGACTTA,23.609,ARS913.5,245697,245935,Confirmed
oridb_404,chrIX,310785,-,g1_and_g2_footprint,downstream,upstream,early,0.212,TTTCTTTTTGTTTCAGCGTCGTTATTTAAATTT,7.0798,ARS916,310585,311072,Confirmed
oridb_408,chrIX,342032,-,g1_and_g2_footprint,downstream,downstream,early,0.3772,TTTTTTAATGTTTAGCTTTCAAAAAAGCTAAAA,16.7079,ARS919,341856,342099,Confirmed
oridb_409,chrIX,357225,+,g1_and_g2_footprint,downstream,upstream,early,0.5149,AATTTTTATATTTTGTTGCTTCAAAAACAGTGC,12.1305,ARS920,357159,357396,Confirmed
oridb_412,chrIX,412004,-,g1_and_g2_footprint,downstream,upstream,early,0.6869,AATTTTAATGTTTTGTCGTGAAGAAGAAGAAGT,13.1063,ARS922,411820,412056,Confirmed
oridb_418,chrX,23920,+,g1_and_g2_footprint,static,upstream,late,0.1337,AAATTTTTAGTTTTGTTATAATAAACGACTTTT,16.3509,ARS1004,23661,24158,Confirmed
oridb_420,chrX,67664,+,g1_and_g2_footprint,downstream,upstream,late,0.4832,AAATTATATGTTTTTGTCCTGGGCGCGACATTC,10.8472,ARS1005,67468,67950,Confirmed
oridb_421,chrX,99626,-,g1_and_g2_footprint,downstream,downstream,early,0.726,TTTATTTATGTTTTGTTTAACTGACGGTGTTTT,18.3252,ARS1006,99366,99803,Confirmed
oridb_428,chrX,217576,+,g1_and_g2_footprint,static,downstream,late,-0.1902,TATATTTATAATTTACTTTTGAAATTTTTCTTA,11.3259,NA,205058,220058,Dubious
oridb_429,chrX,228878,-,g1_and_g2_footprint,upstream,downstream,late,0.2972,AATATTTATATTTATGTACAGTTTTACATTGTA,15.9379,ARS1009,228551,229043,Confirmed
oridb_432,chrX,299013,+,g1_and_g2_footprint,downstream,downstream,late,0.6358,AACATTATTGTTTAGTAACAGTATCATCTTAAA,8.6521,ARS1010,298775,299256,Confirmed
oridb_435,chrX,337352,+,g1_and_g2_footprint,static,upstream,late,0.0788,TTTTTTTATGTTTAGCTAAGTAAAAGCAGCTTG,19.1375,ARS1011,337280,337529,Confirmed
oridb_437,chrX,374939,+,g1_and_g2_footprint,downstream,downstream,early,0.7061,TTATTTTATTTATAGTTTCTATCTTTCAGCTTT,15.5381,ARS1012,374879,375122,Confirmed
oridb_438,chrX,375909,+,g1_and_g2_footprint,static,downstream,early,0.6023,ATAATAAATATTTATGTATTGGATAGTAGTATA,11.8918,ARS1013,375705,376227,Confirmed
oridb_440,chrX,417396,-,g1_and_g2_footprint,downstream,downstream,early,0.6677,ATTTTTTATATTTAGTTTACTTTCCAGTCAATT,19.2756,ARS1014,417194,417440,Confirmed
oridb_443,chrX,459757,-,g1_and_g2_footprint,upstream,downstream,early,0.1122,TATATTTATATATAGTACTATTATCTTCCCTTT,14.1501,ARS1017,459336,459895,Confirmed
oridb_446,chrX,540608,+,g1_and_g2_footprint,upstream,upstream,early,0.6702,AATTTTTACATTTAGTAATATCTAATAACATAT,15.5343,ARS1018,540545,540780,Confirmed
oridb_451,chrX,654550,-,g1_and_g2_footprint,upstream,downstream,late,-0.1501,TTTATTTACATTTTGGTCATTTGAAAATACTTT,15.9837,ARS1020,654374,654614,Confirmed
oridb_464,chrXI,55867,-,g1_and_g2_footprint,upstream,upstream,early,0.8197,TTCATTAATGTTTAGTTCCGAGCGTGACGTTAC,14.9574,ARS1103,55670,55917,Confirmed
oridb_473,chrXI,200218,+,g1_and_g2_footprint,static,downstream,late,-0.0881,CAAATTAATGTTTTATAACTGGATTGTTGTTAA,8.3455,ARS1106.5,199892,200895,Confirmed
oridb_480,chrXI,329859,-,g1_and_g2_footprint,static,upstream,early,0.591,TTTTTTTATGTTTTTTTACGTTTTGAGATCATA,20.782,ARS1109,329681,329930,Confirmed
oridb_481,chrXI,334345,-,g1_and_g2_footprint,static,upstream,early,0.3964,ATTTTTAATGTATATGTAACCTCTCTCTCTTTT,9.5342,NA,333473,334916,Likely
oridb_483,chrXI,382532,+,g1_and_g2_footprint,static,downstream,late,0.1135,TTTATTATTGTATTATTGTATTATTATTATATT,10.5256,NA,381572,382985,Dubious
oridb_484,chrXI,389024,+,g1_and_g2_footprint,static,downstream,late,0.4655,CTTGTTTATGTTTATTTGTAAAATTACATTATT,21.6748,ARS1112,388969,389264,Confirmed
oridb_485,chrXI,417240,+,g1_and_g2_footprint,static,downstream,early,0.1805,GAAGTTTAATTTTAGGTGTCGGGAGAAACATTT,10.6845,ARS1113,417184,417417,Confirmed
oridb_487,chrXI,448199,-,g1_and_g2_footprint,downstream,downstream,early,0.5919,CCTTTTTATGTTTTGTTCTTGATTTTAATACTA,18.3731,ARS1114,448019,448254,Confirmed
oridb_492,chrXI,517043,+,g1_and_g2_footprint,static,downstream,early,0.5231,TTTTTTTACTTTTTGTTATTTTATTTATGTTTT,19.4277,ARS1116,517016,517265,Confirmed
oridb_496,chrXI,581896,+,g1_and_g2_footprint,static,upstream,late,0.4223,TTTTTTTACATTTAGTTTCATTATTATGCAAAT,20.9523,ARS1118,581832,582070,Confirmed
oridb_498,chrXI,612412,-,g1_and_g2_footprint,static,downstream,late,0.7361,TTTTTTTATGTTTTTGGCTCCTAGAGGTGAATA,14.0135,ARS1120,612240,612473,Confirmed
oridb_499,chrXI,617672,+,g1_and_g2_footprint,downstream,downstream,late,0.2183,TTTCTTTATGTATAATTACTATTGTATAATATT,12.9413,NA,617038,618499,Dubious
oridb_500,chrXI,634135,-,g1_and_g2_footprint,static,downstream,late,-0.0807,TCGATTTACGTTTTGTTCAAAAAAATGTATTTG,12.1019,NA,632373,634747,Likely
oridb_501,chrXI,642783,+,g1_and_g2_footprint,static,downstream,late,0.1538,TGATTTTATATTTAGTTGGCGAACTAGCTCATC,19.3917,ARS1123,642726,642973,Confirmed
oridb_506,chrXII,31704,+,g1_and_g2_footprint,static,upstream,late,0.0502,AATATTGATGTTTTGTTGTGTAAATGTTCTATC,15.022,NA,28749,32505,Dubious
oridb_509,chrXII,76886,+,g1_and_g2_footprint,upstream,upstream,late,0.1584,ATTTCTTTTATTTTGTTTTTGTTTTTTGCCTTT,8.8346,ARS1205,76712,77164,Confirmed
oridb_510,chrXII,91467,+,g1_and_g2_footprint,upstream,upstream,early,0.5083,CATTTTAACGTTTAGTTCATCTTGCTGTGAATA,16.7891,ARS1206,91418,91660,Confirmed
oridb_511,chrXII,93282,+,g1_and_g2_footprint,static,downstream,early,0.2291,TTTTTTTACGTTTTTTGATGCAAACGCAATAAA,11.9692,ARS1206.5,93167,93660,Confirmed
oridb_512,chrXII,139704,+,g1_and_g2_footprint,downstream,downstream,early,0.3733,TTTATTTAACTTTATTTCTAATTTGTGGACTTT,17.5304,NA,139294,140448,Dubious
oridb_514,chrXII,156701,+,g1_and_g2_footprint,upstream,upstream,early,0.5718,TGATTTTACTTTTTGGAAGGGCTTTGGACAATT,10.2849,ARS1209,156647,156884,Confirmed
oridb_516,chrXII,181694,-,g1_and_g2_footprint,static,downstream,late,-0.0918,TATATTTATATATATGCTAGTATATACGGATAT,12.7021,NA,179333,194331,Dubious
oridb_519,chrXII,231249,+,g1_and_g2_footprint,static,upstream,early,0.6456,TTTGTTTATATTTTTGTTCAAAAAATGAGTTAA,13.4392,ARS1211,231178,231421,Confirmed
oridb_520,chrXII,243726,+,g1_and_g2_footprint,static,downstream,late,0.0355,TAAATTAATGTTTAGTTCTGATATTTCATTTTT,23.1501,ARS1211.5,243526,243959,Confirmed
oridb_522,chrXII,289421,-,g1_and_g2_footprint,static,upstream,late,0.3843,AAAATTAATGTTTTGCTGCTTTTACTGTCGCGT,9.7572,ARS1212,289219,289468,Confirmed
oridb_525,chrXII,343854,+,g1_and_g2_footprint,downstream,upstream,late,0.1018,TTTTTTTTTGTTTTGTCAAGAGCCGCGCACAAA,11.1572,ARS1212.5,343576,344032,Confirmed
oridb_526,chrXII,373328,-,g1_and_g2_footprint,downstream,downstream,early,0.672,TTTTTTTATATTTTCTCCGTATTTATGAAAATT,17.4125,ARS1213,373155,373399,Confirmed
oridb_530,chrXII,437555,-,g1_and_g2_footprint,static,NA,late,-0.1566,TAATTTTACGTTTTATTCATTTTTGATACGCAT,12.816,NA,426941,441941,Dubious
oridb_536,chrXII,513084,-,g1_and_g2_footprint,upstream,downstream,early,0.7607,TTTATTTATGTTTTTGTCACAAACGCGCACATG,18.3964,ARS1217,512866,513115,Confirmed
oridb_538,chrXII,603110,-,g1_and_g2_footprint,static,downstream,early,0.5886,TTTTTTAATGTTTATGTTCAACATACCCGAAAC,16.4056,ARS1218,602938,603155,Confirmed
oridb_541,chrXII,622843,+,g1_and_g2_footprint,downstream,upstream,late,0.1013,TATTTATATATTTTGTTGTGAAAATGCCAAAAT,17.5008,ARS1219,622672,623123,Confirmed
oridb_543,chrXII,645171,-,g1_and_g2_footprint,static,downstream,late,-0.2594,TATTTTATCAATTAGTTTGCAGAATCGGGAAAA,10.307,ARS1219.7,644937,645426,Confirmed
oridb_544,chrXII,659892,+,g1_and_g2_footprint,static,downstream,early,0.6299,GCTTTTTATGTTTATTTCATGGATTACGAAATT,19.2063,ARS1220,659823,660072,Confirmed
oridb_551,chrXII,786360,-,g1_and_g2_footprint,static,upstream,late,-0.0091,ATTTTTTATATTTGGTATAACCGCTGAAGGTTA,6.9875,NA,785588,786917,Dubious
oridb_552,chrXII,794208,-,g1_and_g2_footprint,static,downstream,early,0.7184,AAAGTTTAAGTTTAGTTACGGGGTTTAATGTAA,16.4263,ARS1226,794020,794269,Confirmed
oridb_554,chrXII,822089,+,g1_and_g2_footprint,downstream,downstream,late,0.0805,TATTTTTATGTTTAAGAAAGGATTAAGAACAAT,15.5098,ARS1227,821907,822336,Confirmed
oridb_558,chrXII,888741,-,g1_and_g2_footprint,downstream,downstream,late,0.7121,GTTTTTTATGTTTAGATGTAAAAATTAATTTTT,20.0399,ARS1227.5,888569,888810,Confirmed
oridb_560,chrXII,928288,+,g1_and_g2_footprint,upstream,downstream,late,0.3149,AATATTATAGTTTTGTTAGTAATGTTGAACTTT,16.7604,ARS1229,928054,928543,Confirmed
oridb_564,chrXII,1007240,+,g1_and_g2_footprint,upstream,upstream,late,0.6866,TATTTTTATATTTTGTGTTTGCTAAGGTCTAAT,15.8338,ARS1232,1007185,1007475,Confirmed
oridb_566,chrXII,1022408,+,g1_and_g2_footprint,static,downstream,late,-0.0483,AAAATTTACAATTATTTCTTTATTTAGATTGAT,10.9021,NA,1016309,1023309,Likely
oridb_567,chrXII,1024157,-,g1_and_g2_footprint,downstream,upstream,late,0.0083,CTTAATGATGTTTAGTTCTGAAATAACGATTTT,15.5075,ARS1234,1023972,1024212,Confirmed
oridb_577,chrXIII,23986,+,g1_and_g2_footprint,static,downstream,early,0.0464,TTTTTGTATTATTTGTTCTAGTTTACAAGTTTT,11.5861,NA,23851,25690,Dubious
oridb_578,chrXIII,31766,+,g1_and_g2_footprint,upstream,upstream,early,0.6587,GTAGTTTATTATTAGTTGCCAAAACGAAACATT,14.6512,ARS1303,31687,31935,Confirmed
oridb_584,chrXIII,94391,-,g1_and_g2_footprint,static,upstream,early,0.687,ATTAATTATATTTAGATATATATTCGTATTTTA,14.0159,ARS1305,94216,94463,Confirmed
oridb_594,chrXIII,286947,-,g1_and_g2_footprint,downstream,downstream,early,0.6863,AGGATTTATGTTTTTTTGTTGCTTTGGAACTTT,15.0531,ARS1310,286783,287068,Confirmed
oridb_604,chrXIII,433015,+,g1_and_g2_footprint,downstream,downstream,early,0.4884,CTACTTTACAATTAGTTACAATTTCTTTTTCTT,8.8394,ARS1315,432852,433348,Confirmed
oridb_607,chrXIII,480533,-,g1_and_g2_footprint,static,upstream,late,-0.3283,AATCTATATATTTAGTTCTTATAATAGATGAAT,15.1209,NA,480234,483638,Likely
oridb_609,chrXIII,503644,-,g1_and_g2_footprint,static,upstream,late,0.4129,AGATTTTACCTTTTGGCAAAAAATCAGCACATT,13.1798,ARS1319,503347,504088,Confirmed
oridb_610,chrXIII,535771,-,g1_and_g2_footprint,downstream,downstream,early,0.5351,TTAATTTATATTTAGTTTAGGATATAGATTATC,22.1259,ARS1320,535596,535844,Confirmed
oridb_612,chrXIII,554615,-,g1_and_g2_footprint,static,downstream,late,0.4511,ATAATTTATCATTTGTTGCCTCAAACTGATATT,14.8718,ARS1322,554393,554751,Confirmed
oridb_615,chrXIII,611318,+,g1_and_g2_footprint,static,upstream,early,0.3128,ATTGTTTATGTTTATGTTCTTTATACTCAAAAT,19.6901,ARS1323,611274,611489,Confirmed
oridb_616,chrXIII,634521,+,g1_and_g2_footprint,static,downstream,late,0.1733,TATTTTTACTATTTGTAATAATGATTCTGCTTT,12.1412,ARS1324,634480,634715,Confirmed
oridb_617,chrXIII,649362,+,g1_and_g2_footprint,downstream,downstream,early,0.622,TTATTTCATATTTTGTTGACATTTGAGAGCTTC,16.2911,ARS1325,649308,649552,Confirmed
oridb_620,chrXIII,758418,-,g1_and_g2_footprint,static,downstream,late,0.2655,AAATTTTATGTTTTTTTCTTCGTTTTGCGAAAA,14.3136,ARS1327,758223,758471,Confirmed
oridb_624,chrXIII,805162,+,g1_and_g2_footprint,upstream,downstream,early,0.0626,TATTTTTGTATTTAGTCTTTGTTTTCGAACTTT,18.3002,ARS1329,805116,805338,Confirmed
oridb_625,chrXIII,815391,+,g1_and_g2_footprint,downstream,upstream,early,0.6719,AAATTCTATGTTTTGTTCCTGAAATCTCGATAT,16.4772,ARS1330,815341,815567,Confirmed
oridb_628,chrXIII,878720,+,g1_and_g2_footprint,downstream,downstream,late,0.0799,TTTTTTTATGTTTTTTTATGATAATCTCTCAGC,16.5376,ARS1331.7,878619,879115,Confirmed
oridb_629,chrXIII,897977,-,g1_and_g2_footprint,static,upstream,early,0.5837,TTTTTTTATGTTTGGTTCTTGTTATTGAACAAA,18.0382,ARS1332,897804,898040,Confirmed
oridb_636,chrXIV,33265,+,g1_and_g2_footprint,upstream,downstream,late,-0.0262,TATGTTTGTGTTTATTTCTGAATAAAAATTTAT,12.5576,NA,28757,43757,Dubious
oridb_637,chrXIV,61858,-,g1_and_g2_footprint,static,downstream,late,0.3854,TTTATTTAAATTTTGCCATTTTATATGTACATT,18.3313,ARS1406,61598,61895,Confirmed
oridb_639,chrXIV,89757,-,g1_and_g2_footprint,static,downstream,early,0.6769,TATTTTTAAGTTTTGTTTGTTTTTTTTATTGTT,17.5423,ARS1407,89530,89804,Confirmed
oridb_645,chrXIV,157528,-,g1_and_g2_footprint,static,downstream,late,-0.0962,TTGTTTTATTCTTTGTTGGCTATGTAGCCATTT,10.9783,NA,151281,166281,Dubious
oridb_646,chrXIV,169749,-,g1_and_g2_footprint,downstream,upstream,late,0.5209,TAATTTAACGTTTTGTTTCTTCCGTCATCATAT,14.0681,ARS1411,169567,169805,Confirmed
oridb_650,chrXIV,250494,-,g1_and_g2_footprint,downstream,downstream,late,0.3276,ACAATTTGTATTTAGTTGGTGTGACCTCAAATT,11.9764,ARS1413,250260,250507,Confirmed
oridb_655,chrXIV,343586,-,g1_and_g2_footprint,static,upstream,late,0.0467,GATCTTCACATTTTGTTCTAGTATTATGATTTT,14.0463,NA,342966,344120,Likely
oridb_659,chrXIV,412442,-,g1_and_g2_footprint,downstream,downstream,late,0.6407,TTTTTTTATATTTCTGCCCAAAAAACGTAGTTC,9.679,ARS1417,412266,412496,Confirmed
oridb_660,chrXIV,415874,-,g1_and_g2_footprint,downstream,upstream,late,0.3853,ACTGTTAGTAATTTGGTTCGTTATTCTGTATAT,9.1083,NA,415734,416934,Likely
oridb_662,chrXIV,449537,-,g1_and_g2_footprint,downstream,upstream,late,0.6138,CATATTTACATTTAGCCCTTCTATAACCGTTTT,17.5194,ARS1419,449346,449591,Confirmed
oridb_666,chrXIV,546150,-,g1_and_g2_footprint,static,upstream,early,0.161,TATTTTTACGTTTTGGCACGTGAATCTTCAGTA,15.8777,ARS1421,545970,546205,Confirmed
oridb_672,chrXIV,609536,+,g1_and_g2_footprint,upstream,downstream,early,0.5996,TTTTTTTATGTTTATTTTCTATTACTGATTTTC,19.2465,ARS1424,609462,609710,Confirmed
oridb_674,chrXIV,635834,-,g1_and_g2_footprint,upstream,downstream,early,0.6203,TTTTTTTAATTTTAGTTAAGTTTTCTTCTAATT,18.4076,ARS1426,635663,635904,Confirmed
oridb_682,chrXIV,738719,+,g1_and_g2_footprint,downstream,downstream,late,0.4997,CGCATTTATATTTAGTTAACATTATGTGAAATT,17.8529,ARS1428.5,738555,738987,Confirmed
oridb_688,chrXV,19330,-,g1_and_g2_footprint,downstream,downstream,late,-0.0259,TTATTTTATTTTTCTTTTCTAACTAAGTGAATA,11.2954,NA,18368,20228,Likely
oridb_690,chrXV,35714,+,g1_and_g2_footprint,downstream,upstream,early,0.3962,TATATTTATATTTAGAGGCCTATATTGCGCATC,15.9814,ARS1506.5,35668,35904,Confirmed
oridb_692,chrXV,72688,+,g1_and_g2_footprint,static,upstream,late,0.0147,TTTTTTTACTTTTAGTTTATTTTTTTAGACTTT,20.2365,ARS1507,72637,72873,Confirmed
oridb_694,chrXV,85361,-,g1_and_g2_footprint,static,downstream,late,0.0679,TATATTTATGTTTATGTTCCATCATGTAGAAAA,16.1971,ARS1508,85196,85445,Confirmed
oridb_696,chrXV,113895,+,g1_and_g2_footprint,downstream,upstream,early,0.6482,ATTGTTTATATTTTTGTACCACAAACATCATTA,12.5997,ARS1509,113844,114085,Confirmed
oridb_700,chrXV,167003,+,g1_and_g2_footprint,downstream,downstream,early,0.6436,TTTATTTATGTTTTCGTTATATTTTCAACATTT,17.6468,ARS1510,166975,167221,Confirmed
oridb_704,chrXV,277733,-,g1_and_g2_footprint,downstream,upstream,early,0.7046,GTTGTTTATCTTTTGTTATTAAAGCTCTACTTT,18.1132,ARS1511,277529,277778,Confirmed
oridb_705,chrXV,309265,-,g1_and_g2_footprint,static,downstream,early,0.2808,GAAAATTATATTTTGTCATGAAGTAATCTATTC,11.0193,ARS1512,308969,309462,Confirmed
oridb_707,chrXV,337484,-,g1_and_g2_footprint,static,downstream,early,0.4992,TCTTTTTACCTTTTGTCACCATATTAAATCTTT,16.4081,ARS1513,337279,337528,Confirmed
oridb_716,chrXV,489833,+,g1_and_g2_footprint,downstream,upstream,early,0.4475,TTAATTTATCATTATTTACAATATTAACTAATC,14.9699,ARS1514,489644,490128,Confirmed
oridb_718,chrXV,497417,-,g1_and_g2_footprint,static,upstream,late,0.137,ATTATTTATAATTTTTGATTATAAACATGAAAT,11.8115,ARS1515.5,497144,497603,Confirmed
oridb_721,chrXV,566598,-,g1_and_g2_footprint,upstream,upstream,late,0.6291,AAATTTTACCTTTTGATGCGGAATTGACTTTTT,13.7905,ARS1516,566409,566643,Confirmed
oridb_724,chrXV,605336,+,g1_and_g2_footprint,static,downstream,late,-0.1229,ACAAATTATGTTTAGTAGCGTTCTTTTAATCTA,11.8418,NA,601221,608221,Likely
oridb_728,chrXV,656701,+,g1_and_g2_footprint,downstream,downstream,late,0.5253,CTATTTAATGATTAGTAAGACAAAAATGACATT,14.2171,ARS1519,656632,656876,Confirmed
oridb_729,chrXV,663645,+,g1_and_g2_footprint,static,downstream,late,0.1767,CGTATTTATGTTTTCTTTGTGGTATATAATATA,12.9095,NA,662888,663957,Likely
oridb_731,chrXV,681366,-,g1_and_g2_footprint,upstream,upstream,late,0.5028,ATTTTTAATATATAGTTCTGAAAGTCTATTTTT,17.559,ARS1520,681112,681611,Confirmed
oridb_733,chrXV,729795,+,g1_and_g2_footprint,static,upstream,late,0.3538,TATTTTTATATTTTGGCCGGTTTATGGATAGAA,14.1731,ARS1521,729739,729969,Confirmed
oridb_736,chrXV,766689,+,g1_and_g2_footprint,downstream,downstream,late,0.6742,GTATTTTACGTTTTTTCATAATCATATACTTTC,13.1257,ARS1523,766617,766862,Confirmed
oridb_737,chrXV,783386,+,g1_and_g2_footprint,upstream,upstream,late,0.2157,TATTTTTAACTTTTGGTTTTGAAGCTCGTAATT,17.7403,ARS1524,783344,783563,Confirmed
oridb_740,chrXV,874372,-,g1_and_g2_footprint,downstream,upstream,late,0.0914,ACATTTTAATATTTGTTAGGATTCGCCTTTATT,11.1521,ARS1526,874193,874437,Confirmed
oridb_744,chrXV,908313,+,g1_and_g2_footprint,static,upstream,early,0.7759,TTTGTTTATGTTTAGGTTAACGATAGACATATT,21.252,ARS1528,908295,908544,Confirmed
oridb_751,chrXV,1053698,+,g1_and_g2_footprint,static,downstream,early,0.7372,TTTGTTTAAATTTTGTTCGGTCTCGGCTATATT,16.5822,ARS1529.5,1053496,1053907,Confirmed
oridb_760,chrXVI,43163,-,g1_and_g2_footprint,upstream,upstream,late,0.3264,TATTTTTATGTTTTTGTTTATATTTTTGAATTT,21.0212,ARS1604,42976,43212,Confirmed
oridb_764,chrXVI,116593,+,g1_and_g2_footprint,downstream,downstream,late,0.3449,TATTTTTATGTTTTGTTCCATACTAAATGCAGT,18.2291,ARS1607,116505,116765,Confirmed
oridb_766,chrXVI,162472,+,g1_and_g2_footprint,static,downstream,late,0.524,TTTTTTTATGATTTAGTCCAAAATATCACTATT,16.7373,NA,161694,163448,Likely
oridb_767,chrXVI,179084,-,g1_and_g2_footprint,static,upstream,late,-0.2509,TTAATTATAGTTTACGTACGTAATCGCTGTCAT,9.5454,NA,178644,179828,Likely
oridb_770,chrXVI,210822,-,g1_and_g2_footprint,upstream,upstream,late,0.6044,ATTTTTGATGTTTAGGTTACCAATATCTCATTA,14.7104,ARS1609,210468,211724,Confirmed
oridb_778,chrXVI,289531,+,g1_and_g2_footprint,downstream,upstream,early,0.7236,ATAATTAATGTTTACTTCAGACAATAAAACATT,16.5343,ARS1614,289484,289705,Confirmed
oridb_787,chrXVI,384597,+,g1_and_g2_footprint,downstream,downstream,early,0.2415,AAAATTTATGTTTATGTGGCGTAAAATATCTTT,18.7852,ARS1618,384541,384789,Confirmed
oridb_789,chrXVI,418183,+,g1_and_g2_footprint,downstream,downstream,early,0.7294,CTTATTTACAATTAGTTTTCTCAGAACGATATT,16.2069,ARS1619,418137,418364,Confirmed
oridb_793,chrXVI,454100,+,g1_and_g2_footprint,static,upstream,late,0.283,GATTTTTAGGTTTAGTTCTTCCAAAGCGGAATC,13.5051,NA,453663,454632,Likely
oridb_798,chrXVI,511708,+,g1_and_g2_footprint,static,upstream,early,0.6049,TATTTTTATGTTTTTTGAGATATTTCGAGCTTT,18.7796,ARS1621,511623,511944,Confirmed
oridb_807,chrXVI,608624,-,g1_and_g2_footprint,static,downstream,late,-0.3633,TATATTTTATTTTTGTTATTTTTCTGACGTATC,10.2164,NA,608479,609679,Dubious
oridb_809,chrXVI,633926,+,g1_and_g2_footprint,downstream,downstream,early,0.74,GTTTTTATAGTTTAGTTGGTTTTGTTTAATTTC,14.4813,ARS1623,633873,634122,Confirmed
oridb_811,chrXVI,684410,+,g1_and_g2_footprint,upstream,upstream,early,0.5559,TTTTTTTACTTTTTGTTTCTTTATTAATTTTTT,17.231,ARS1624,684388,684637,Confirmed
oridb_813,chrXVI,695470,+,g1_and_g2_footprint,downstream,upstream,late,0.1725,AATTTTTATATTTGGTTCGAAAATTATGACATT,20.8511,ARS1625,695437,695686,Confirmed
oridb_817,chrXVI,777099,-,g1_and_g2_footprint,upstream,downstream,early,0.7857,TTTATTTATATTTTGGCATTACTCTTCATCATT,18.2426,ARS1626.5,776925,777156,Confirmed
oridb_818,chrXVI,819346,-,g1_and_g2_footprint,downstream,downstream,early,0.5673,AATTTTTATATTTATTCATGATATATTAATATT,20.8951,ARS1627,819159,819399,Confirmed
oridb_824,chrXVI,880911,+,g1_and_g2_footprint,downstream,downstream,late,0.4636,ATATTTTATGTTTAGGTTAATAACTTTGGTAAT,21.7175,ARS1630,880860,881108,Confirmed
